# Fdb version 3
["latex"] 0 "Abbildungen.tex" "Abbildungen.dvi" "Abbildungen" 0
  "Abbildungen.aux" 1476811389 8 a94a2480d3289e625eea47cd1b285758 ""
  "Abbildungen.tex" 0 -1 0 ""
  (generated)
  "Abbildungen.log"
  "Abbildungen.dvi"
