\relax 
\citation{Juul2010}
\citation{Juul2010}
\citation{Kallio2011}
\citation{Ryan2006}
\citation{Ryan2006}
\citation{Lazzaro2004}
\citation{Sherry2006}
\citation{Yee2007}
\citation{Billieux2013}
\@writefile{toc}{\contentsline {section}{\numberline {1}General Definitions}{1}}
\@writefile{toc}{\contentsline {subsection}{\numberline {1.1}Video Game}{1}}
\@writefile{toc}{\contentsline {subsection}{\numberline {1.2}Player/Gamer}{1}}
\@writefile{toc}{\contentsline {subsection}{\numberline {1.3}Personal Computer}{1}}
\@writefile{toc}{\contentsline {subsection}{\numberline {1.4}Video Game Console}{1}}
\@writefile{toc}{\contentsline {subsection}{\numberline {1.5}Handheld Gaming Device}{1}}
\@writefile{toc}{\contentsline {subsection}{\numberline {1.6}Mobile Phone/Smartphone}{1}}
\@writefile{toc}{\contentsline {subsection}{\numberline {1.7}Tablet}{1}}
\citation{Sherry2006}
\citation{Stewart2011}
\citation{Scharkow2015}
\citation{Lazzaro2004}
\citation{Bartle1999}
\citation{Kahn2015}
\citation{Billieux2013}
\citation{Vorderer2003}
\citation{Nacke2014}
\citation{Li2011}
\citation{Kahn2015}
\citation{Lazzaro2004}
\citation{Sherry2006}
\citation{Kallio2011}
\citation{Boyle2012}
\citation{Merriam-Webster1995}
\citation{Vaughn2015}
\citation{Ferguson2014}
\citation{Boyle2012}
\citation{Kuittinen2007}
\citation{Tseng2011}
\citation{Lazzaro2004}
\citation{IGDA2006}
\citation{Stewart2011}
\citation{Zeigler-Hill2015}
\citation{Lazzaro2004}
\citation{Reinecke2009}
\citation{11bit2014}
\citation{Schellong2014a}
\citation{Oliver2016}
\citation{Kallio2011}
\citation{Sherry2006}
\@writefile{toc}{\contentsline {section}{\numberline {2}Definitions of Motives}{2}}
\newlabel{Definitions_Motives}{{2}{2}}
\@writefile{toc}{\contentsline {subsection}{\numberline {2.1}Sociability}{2}}
\@writefile{toc}{\contentsline {subsection}{\numberline {2.2}Competition}{2}}
\@writefile{toc}{\contentsline {subsection}{\numberline {2.3}Escapism}{2}}
\@writefile{toc}{\contentsline {subsection}{\numberline {2.4}Altering Emotional States}{2}}
\@writefile{toc}{\contentsline {subsection}{\numberline {2.5}Time Killing}{2}}
\citation{Murray1999}
\citation{Lazzaro2004}
\citation{Weibel2011}
\citation{Nacke2008}
\citation{Laffan2016}
\citation{Sherry2006}
\citation{Leigh2011}
\citation{Billieux2013}
\citation{Yee2007}
\citation{Ryan2006}
\citation{Przybylski2010}
\citation{Klimmt2006}
\citation{Przybylski2010}
\citation{Klimmt2006}
\citation{Przybylski2010}
\citation{Yee2007}
\citation{Vorderer2003}
\citation{Ryan2006}
\citation{Yee2007}
\citation{Ryan2006}
\@writefile{toc}{\contentsline {subsection}{\numberline {2.6}Immersion}{3}}
\@writefile{toc}{\contentsline {subsection}{\numberline {2.7}Effectance}{3}}
\@writefile{toc}{\contentsline {subsection}{\numberline {2.8}Self Efficacy}{3}}
\@writefile{toc}{\contentsline {subsection}{\numberline {2.9}Achievement}{3}}
\citation{Lazzaro2004}
\citation{Stewart2011}
\citation{Bartle1999}
\citation{Scharkow2015}
\citation{Kahn2015}
\citation{Freitas2006}
\citation{Kiili2005}
\citation{budd_aesthetics_1998}
\citation{Zangwill2014}
\citation{Hennion2007}
\citation{MacLeod2016}
\citation{Gert2016}
\citation{Gert2016}
\citation{Merriam-Webster2017}
\citation{Kallio2011}
\citation{Henry2014}
\citation{Linke2014}
\citation{BadMouth2012}
\citation{Kaminsky2016}
\citation{Merriam-Webster2017}
\citation{Kallio2011}
\citation{Gandasegui2010}
\citation{Kallio2011}
\citation{Klimmt2006}
\citation{Gandasegui2010}
\citation{Holmes2017}
\citation{Homburg2005}
\citation{Simon2017}
\@writefile{toc}{\contentsline {subsection}{\numberline {2.10}Exploration}{4}}
\@writefile{toc}{\contentsline {section}{\numberline {3}Definitions of Barriers}{4}}
\newlabel{Definitions_Barriers}{{3}{4}}
\@writefile{toc}{\contentsline {subsection}{\numberline {3.1}Aesthetics}{4}}
\@writefile{toc}{\contentsline {subsection}{\numberline {3.2}Moral Reasons}{4}}
\@writefile{toc}{\contentsline {subsection}{\numberline {3.3}Inaccessibility of Game Devices}{4}}
\@writefile{toc}{\contentsline {subsection}{\numberline {3.4}Inaccessibility of Games}{4}}
\citation{Lazzaro2004}
\citation{Holmes2017}
\citation{Lovato2015}
\citation{Carmichael2011}
\citation{Juul2010}
\citation{Przybylski2010}
\citation{Klimmt2006}
\citation{Juul2010}
\citation{Qin2009}
\citation{Gandasegui2010}
\citation{Klimmt2006}
\citation{Juul2010}
\citation{Scheibehenne2008}
\citation{Iyengar2000}
\citation{Chernev2014}
\citation{Mick2017}
\@writefile{toc}{\contentsline {subsection}{\numberline {3.5}Costs}{5}}
\@writefile{toc}{\contentsline {subsection}{\numberline {3.6}Time Constraints}{5}}
\@writefile{toc}{\contentsline {subsection}{\numberline {3.7}Complexity}{5}}
\@writefile{toc}{\contentsline {subsection}{\numberline {3.8}Unfamiliarity}{5}}
\@writefile{toc}{\contentsline {subsection}{\numberline {3.9}Too much choice/Hyperchoice}{5}}
\@writefile{toc}{\contentsline {section}{\numberline {4}Motive Barriers}{5}}
\@writefile{toc}{\contentsline {subsection}{\numberline {4.1}Emotional Motives}{5}}
\citation{Hamari2014}
\citation{Juul2010}
\citation{Statista2017}
\citation{Statista2015}
\@writefile{toc}{\contentsline {subsection}{\numberline {4.2}Social Motives}{6}}
\@writefile{toc}{\contentsline {subsection}{\numberline {4.3}Interactivity Motives}{6}}
\@writefile{toc}{\contentsline {section}{\numberline {5}Barrier Clustering}{6}}
\@writefile{toc}{\contentsline {subsection}{\numberline {5.1}Cognitive/Coordinative Barriers}{6}}
\@writefile{toc}{\contentsline {subsection}{\numberline {5.2}Resource Barriers}{6}}
\@writefile{toc}{\contentsline {subsection}{\numberline {5.3}Medium Barriers}{6}}
\@writefile{toc}{\contentsline {section}{\numberline {6}Gamer Types}{6}}
\@writefile{toc}{\contentsline {subsection}{\numberline {6.1}Preliminary note}{6}}
\citation{Williams2002}
\citation{Adams2002}
\citation{Hilgard2013}
\citation{Adams2002}
\citation{Juul2010}
\citation{Bateman2011}
\citation{Iwata2011}
\citation{Bateman2011}
\citation{Adams2002}
\citation{Hilgard2013}
\citation{Lane1999}
\citation{Juul2010}
\@writefile{toc}{\contentsline {subsection}{\numberline {6.2}The Core/Hardcore Gamer}{7}}
\@writefile{toc}{\contentsline {subsubsection}{\numberline {6.2.1}Definition}{7}}
\@writefile{lof}{\contentsline {figure}{\numberline {1}{\ignorespaces Gamer Type Continuum - The Core Gamer}}{7}}
\newlabel{fig:gamertypecore}{{1}{7}}
\citation{Hilgard2013}
\citation{Juul2010}
\citation{Nacke2014}
\citation{Adams2002}
\citation{Iwata2011}
\citation{Bateman2011}
\citation{Juul2010}
\citation{Kultima2009}
\citation{Lane1999}
\@writefile{toc}{\contentsline {subsubsection}{\numberline {6.2.2}Exemplary played games}{8}}
\@writefile{toc}{\contentsline {subsection}{\numberline {6.3}The Casual Gamer}{8}}
\@writefile{toc}{\contentsline {subsubsection}{\numberline {6.3.1}Definition}{8}}
\@writefile{lof}{\contentsline {figure}{\numberline {2}{\ignorespaces Gamer Type Continuum - The Casual Gamer}}{8}}
\newlabel{fig:gamertypecasual}{{2}{8}}
\@writefile{toc}{\contentsline {subsubsection}{\numberline {6.3.2}Exemplary played games}{8}}
\citation{Porter2017}
\citation{Hall-Stigerts2015}
\citation{Shaw2010}
\citation{Wikipedia2017}
\citation{Juul2010}
\@writefile{toc}{\contentsline {subsection}{\numberline {6.4}The Non-Gamer}{9}}
\@writefile{lof}{\contentsline {figure}{\numberline {3}{\ignorespaces Gamer Type Continuum - The Non-Gamer}}{9}}
\newlabel{fig:gamertypenon}{{3}{9}}
\@writefile{toc}{\contentsline {subsubsection}{\numberline {6.4.1}Definition}{9}}
\@writefile{toc}{\contentsline {subsubsection}{\numberline {6.4.2}Exemplary played games}{9}}
\@writefile{toc}{\contentsline {section}{\numberline {7}Definition of Games Types}{9}}
\@writefile{toc}{\contentsline {subsection}{\numberline {7.1}Preliminary note}{9}}
\citation{Juul2010}
\citation{Juul2010}
\citation{Lane1999}
\citation{Juul2010}
\citation{Juul2010}
\citation{Juul2010}
\citation{Adams2000}
\citation{Juul2010}
\citation{Kultima2009}
\citation{Kultima2009}
\citation{Kultima2009}
\citation{Juul2010}
\citation{Lane1999}
\citation{Juul2010}
\citation{Kultima2009}
\citation{Juul2010}
\citation{Kultima2009}
\citation{Juul2010}
\@writefile{lof}{\contentsline {figure}{\numberline {4}{\ignorespaces Games Type Continuum - The Core Game}}{10}}
\newlabel{fig:gametypecore}{{4}{10}}
\@writefile{toc}{\contentsline {subsection}{\numberline {7.2}Core Games}{10}}
\@writefile{toc}{\contentsline {subsection}{\numberline {7.3}Casual Games}{10}}
\citation{Juul2010}
\citation{Juul2010}
\citation{Juul2010}
\@writefile{lof}{\contentsline {figure}{\numberline {5}{\ignorespaces Games Type Continuum - The Casual Game}}{11}}
\newlabel{fig:gametypecasual}{{5}{11}}
\@writefile{toc}{\contentsline {subsection}{\numberline {7.4}Remarks}{11}}
\@writefile{toc}{\contentsline {subsection}{\numberline {7.5}Comparisons}{11}}
\citation{Barefoot2013}
\@writefile{toc}{\contentsline {section}{\numberline {8}Exemplary Games compared}{12}}
\@writefile{lof}{\contentsline {figure}{\numberline {6}{\ignorespaces Conceptual Model - Video Games: Motives and Barriers}}{13}}
\newlabel{fig:framework}{{6}{13}}
\@writefile{lof}{\contentsline {figure}{\numberline {7}{\ignorespaces Conceptual Model - Video Games: Motives and Barriers}}{14}}
\newlabel{fig:framework2}{{7}{14}}
\citation{Pardee1990}
\citation{MerriamWebsterBarrier2017}
\citation{Maslow1943}
\citation{Ryan2006}
\citation{Deci2000}
\citation{Kaye2012}
\citation{Leversen2012}
\citation{McClelland1987}
\citation{Zillmann1988}
\citation{Lazzaro2004}
\citation{Cheyne2006}
\citation{Koerth-Baker2016}
\@writefile{toc}{\contentsline {section}{\numberline {9}Hypotheses}{15}}
\@writefile{toc}{\contentsline {subsection}{\numberline {9.1}General Hypotheses}{15}}
\@writefile{toc}{\contentsline {subsection}{\numberline {9.2}Motive Hypotheses}{15}}
\citation{Murray1999}
\citation{Klimmt2006}
\citation{Klimmt2006}
\citation{Przybylski2010}
\citation{Ryan2006}
\citation{Baard2004}
\citation{Leversen2012}
\citation{McClelland1987}
\citation{Lazzaro2004}
\citation{Maslow1943a}
\citation{Stewart2011}
\citation{Gandasegui2010}
\citation{Juul2010}
\citation{Scharkow2015}
\@writefile{toc}{\contentsline {subsection}{\numberline {9.3}Barrier Hypotheses}{16}}
\citation{Nelson1970}
\citation{Homburg2005}
\citation{Simon2017}
\citation{Kuehn2014}
\citation{Nelson1970}
\citation{SteamSpy2017}
\citation{Iyengar2000}
\citation{Scheibehenne2008}
\@writefile{toc}{\contentsline {subsection}{\numberline {9.4}Gamer Type Hypotheses}{17}}
\@writefile{toc}{\contentsline {subsubsection}{\numberline {9.4.1}Moderating effect of the Core Gamer Type}{17}}
\citation{Kallio2011}
\citation{Kallio2011}
\citation{Juul2010}
\citation{Juul2010}
\citation{Adams2000}
\citation{Juul2010}
\citation{Kuittinen2007}
\citation{IGDA2006}
\citation{Kultima2009}
\citation{InternationalGameDevelopersAssociation2009}
\@writefile{toc}{\contentsline {subsubsection}{\numberline {9.4.2}Moderating effect of the Casual Gamer Type}{18}}
\@writefile{toc}{\contentsline {subsection}{\numberline {9.5}Games Types Hypotheses}{18}}
\@writefile{toc}{\contentsline {subsubsection}{\numberline {9.5.1}Moderating effect of the Core Games Type}{18}}
\@writefile{toc}{\contentsline {subsubsection}{\numberline {9.5.2}Moderating effect of the Casual Games Type}{18}}
\bibstyle{apalike-url}
\bibdata{library}
\bibcite{11bit2014}{11bit Studios, 2014}
\bibcite{Adams2000}{Adams, 2000}
\bibcite{Adams2002}{Adams, 2002}
\bibcite{Baard2004}{Baard et\nobreakspace  {}al., 2004}
\bibcite{BadMouth2012}{BadMouth, 2012}
\bibcite{Barefoot2013}{Barefoot, 2013}
\bibcite{Bartle1999}{Bartle, 1999}
\bibcite{Bateman2011}{Bateman et\nobreakspace  {}al., 2011}
\bibcite{Billieux2013}{Billieux et\nobreakspace  {}al., 2013}
\bibcite{Boyle2012}{Boyle et\nobreakspace  {}al., 2012}
\bibcite{budd_aesthetics_1998}{Budd, 1998}
\bibcite{Carmichael2011}{Carmichael, 2011}
\bibcite{Chernev2014}{Chernev et\nobreakspace  {}al., 2014}
\bibcite{Cheyne2006}{Cheyne et\nobreakspace  {}al., 2006}
\bibcite{Deci2000}{Deci and Ryan, 2000}
\bibcite{Ferguson2014}{Ferguson et\nobreakspace  {}al., 2014}
\bibcite{Freitas2006}{Freitas, 2006}
\bibcite{Gandasegui2010}{Gandasegui, 2010}
\bibcite{Gert2016}{Gert and Gert, 2016}
\bibcite{Hall-Stigerts2015}{Hall-Stigerts, 2013}
\bibcite{Hamari2014}{Hamari and Tuunanen, 2014}
\bibcite{Hennion2007}{Hennion, 2007}
\bibcite{Henry2014}{Henry et\nobreakspace  {}al., 2014}
\bibcite{Hilgard2013}{Hilgard et\nobreakspace  {}al., 2013}
\bibcite{Holmes2017}{Holmes, 2017}
\bibcite{Homburg2005}{Homburg et\nobreakspace  {}al., 2005}
\bibcite{IGDA2006}{IGDA, 2006}
\bibcite{Iyengar2000}{Iyengar and Lepper, 2000}
\bibcite{Juul2010}{Juul, 2010}
\bibcite{Kahn2015}{Kahn et\nobreakspace  {}al., 2015}
\bibcite{Kallio2011}{Kallio et\nobreakspace  {}al., 2011}
\bibcite{Kaminsky2016}{Kaminsky, 2016}
\bibcite{Kaye2012}{Kaye and Bryce, 2012}
\bibcite{Kiili2005}{Kiili, 2005}
\bibcite{Klimmt2006}{Klimmt and Hartmann, 2006}
\bibcite{Koerth-Baker2016}{Koerth-Baker, 2016}
\bibcite{Kuehn2014}{K{\"{u}}hn et\nobreakspace  {}al., 2014}
\bibcite{Kuittinen2007}{Kuittinen et\nobreakspace  {}al., 2007}
\bibcite{Kultima2009}{Kultima, 2009}
\bibcite{Laffan2016}{Laffan et\nobreakspace  {}al., 2016}
\bibcite{Lane1999}{Lane et\nobreakspace  {}al., 1999}
\bibcite{Lazzaro2004}{Lazzaro, 2004}
\bibcite{Leigh2011}{Leigh, 2011}
\bibcite{Leversen2012}{Leversen et\nobreakspace  {}al., 2012}
\bibcite{Li2011}{Li et\nobreakspace  {}al., 2011}
\bibcite{Linke2014}{Linke, 2014}
\bibcite{Lovato2015}{Lovato, 2015}
\bibcite{MacLeod2016}{MacLeod, 2016}
\bibcite{Maslow1943}{Maslow, 1943a}
\bibcite{Maslow1943a}{Maslow, 1943b}
\bibcite{McClelland1987}{McClelland, 1987}
\bibcite{Merriam-Webster1995}{Merriam-Webster, 1995}
\bibcite{MerriamWebsterBarrier2017}{Merriam-Webster, 2017a}
\bibcite{Merriam-Webster2017}{Merriam-Webster, 2017b}
\bibcite{Mick2017}{Mick et\nobreakspace  {}al., 2017}
\bibcite{Murray1999}{Murray, 1999}
\bibcite{Nacke2014}{Nacke et\nobreakspace  {}al., 2014}
\bibcite{Nacke2008}{Nacke and Lindley, 2008}
\bibcite{Nelson1970}{Nelson, 1970}
\bibcite{Iwata2011}{Nintendo, 2011}
\bibcite{Oliver2016}{Oliver et\nobreakspace  {}al., 2016}
\bibcite{Pardee1990}{Pardee, 1990}
\bibcite{Porter2017}{Porter, 2017}
\bibcite{Przybylski2010}{Przybylski et\nobreakspace  {}al., 2010}
\bibcite{Qin2009}{Qin et\nobreakspace  {}al., 2009}
\bibcite{Reinecke2009}{Reinecke, 2009}
\bibcite{Ryan2006}{Ryan et\nobreakspace  {}al., 2006}
\bibcite{Scharkow2015}{Scharkow et\nobreakspace  {}al., 2015}
\bibcite{Scheibehenne2008}{Scheibehenne, 2008}
\bibcite{Schellong2014a}{Schellong, 2014}
\bibcite{Shaw2010}{Shaw, 2010}
\bibcite{Sherry2006}{Sherry et\nobreakspace  {}al., 2006}
\bibcite{Simon2017}{Simon et\nobreakspace  {}al., 2017}
\bibcite{Statista2015}{Statista, 2015}
\bibcite{Statista2017}{Statista, 2017}
\bibcite{SteamSpy2017}{SteamSpy, 2017}
\bibcite{Stewart2011}{Stewart, 2011}
\bibcite{Tseng2011}{Tseng, 2011}
\bibcite{Vaughn2015}{Vaughn, 2015}
\bibcite{Vorderer2003}{Vorderer et\nobreakspace  {}al., 2003}
\bibcite{Weibel2011}{Weibel and Wissmath, 2011}
\bibcite{Wikipedia2017}{Wikipedia, 2017}
\bibcite{Williams2002}{Williams, 2002}
\bibcite{Yee2007}{Yee, 2007}
\bibcite{Zangwill2014}{Zangwill, 2014}
\bibcite{Zeigler-Hill2015}{Zeigler-Hill and Monica, 2015}
\bibcite{Zillmann1988}{Zillmann, 1988}
