\relax 
\citation{Juul2009}
\citation{Juul2009}
\@writefile{toc}{\contentsline {section}{\numberline {1}General Definitions}{1}}
\@writefile{toc}{\contentsline {subsection}{\numberline {1.1}Video Game}{1}}
\@writefile{toc}{\contentsline {subsection}{\numberline {1.2}Player/Gamer}{1}}
\@writefile{toc}{\contentsline {subsection}{\numberline {1.3}Personal Computer}{1}}
\@writefile{toc}{\contentsline {subsection}{\numberline {1.4}Video Game Console}{1}}
\@writefile{toc}{\contentsline {subsection}{\numberline {1.5}Handheld Gaming Device}{1}}
\@writefile{toc}{\contentsline {subsection}{\numberline {1.6}Mobile Phone/Smartphone}{1}}
\citation{Kallio2011}
\citation{Ryan2006}
\citation{Ryan2006}
\citation{Lazzaro2004}
\citation{Sherry2006}
\citation{Yee2007}
\citation{Billieux2013}
\citation{Maslow1943}
\citation{Ryan2006}
\citation{Kaye2012}
\citation{Sherry2006}
\citation{Stewart2011}
\citation{Scharkow2015}
\citation{Lazzaro2004}
\citation{Bartle1999}
\citation{Kahn2015}
\citation{Billieux2013}
\citation{Vorderer2003}
\citation{McClelland1987}
\@writefile{toc}{\contentsline {subsection}{\numberline {1.7}Tablet}{2}}
\@writefile{toc}{\contentsline {section}{\numberline {2}Definitions of Motives}{2}}
\newlabel{Definitions_Motives}{{2}{2}}
\@writefile{toc}{\contentsline {subsection}{\numberline {2.1}Sociability}{2}}
\@writefile{toc}{\contentsline {subsection}{\numberline {2.2}Competition}{2}}
\citation{Nacke2014}
\citation{Li2011}
\citation{Kahn2015}
\citation{Lazzaro2004}
\citation{Sherry2006}
\citation{Kallio2011}
\citation{Boyle2012}
\citation{Merriam-Webster1995}
\citation{Vaughn2015}
\citation{Ferguson2014}
\citation{Boyle2012}
\citation{Kuittinen2007}
\citation{Tseng2011}
\citation{Lazzaro2004}
\citation{IGDA2006}
\citation{Stewart2011}
\citation{Zeigler-Hill2015}
\citation{Lazzaro2004}
\citation{Reinecke2009}
\citation{11bit2014}
\citation{Schellong2014a}
\citation{Oliver2016}
\citation{Zillmann1988}
\citation{Lazzaro2004}
\citation{Kallio2011}
\citation{Sherry2006}
\@writefile{toc}{\contentsline {subsection}{\numberline {2.3}Escapism}{3}}
\@writefile{toc}{\contentsline {subsection}{\numberline {2.4}Altering Emotional States}{3}}
\citation{Cheyne2006}
\citation{Koerth-Baker2016}
\citation{Murray1999}
\citation{Lazzaro2004}
\citation{Weibel2011}
\citation{Nacke2008}
\citation{Laffan2016}
\citation{Sherry2006}
\citation{Leigh2011}
\citation{Billieux2013}
\citation{Yee2007}
\citation{Ryan2006}
\citation{Murray1999}
\citation{Przybylski2010}
\citation{Klimmt2006}
\citation{Przybylski2010}
\@writefile{toc}{\contentsline {subsection}{\numberline {2.5}Time Killing}{4}}
\@writefile{toc}{\contentsline {subsection}{\numberline {2.6}Immersion}{4}}
\citation{Klimmt2006}
\citation{Klimmt2006}
\citation{Klimmt2006}
\citation{Przybylski2010}
\citation{Klimmt2006}
\citation{Yee2007}
\citation{Vorderer2003}
\citation{Ryan2006}
\citation{Yee2007}
\citation{Ryan2006}
\@writefile{toc}{\contentsline {subsection}{\numberline {2.7}Effectance}{5}}
\@writefile{toc}{\contentsline {subsection}{\numberline {2.8}Self Efficacy}{5}}
\citation{Lazzaro2004}
\citation{McClelland1987}
\citation{Lazzaro2004}
\citation{Lazzaro2004}
\citation{Stewart2011}
\citation{Bartle1999}
\citation{Scharkow2015}
\citation{Kahn2015}
\citation{Freitas2006}
\citation{Kiili2005}
\citation{Stewart2011}
\citation{budd_aesthetics_1998}
\citation{Zangwill2014}
\citation{Hennion2007}
\citation{MacLeod2016}
\@writefile{toc}{\contentsline {subsection}{\numberline {2.9}Achievement}{6}}
\@writefile{toc}{\contentsline {subsection}{\numberline {2.10}Exploration}{6}}
\@writefile{toc}{\contentsline {section}{\numberline {3}Definitions of Barriers}{6}}
\newlabel{Definitions_Barriers}{{3}{6}}
\@writefile{toc}{\contentsline {subsection}{\numberline {3.1}Aesthetics}{6}}
\citation{Gandasegui2010}
\citation{Juul2009}
\citation{Scharkow2015}
\citation{Gert2016}
\citation{Gert2016}
\citation{Lazzaro2004}
\citation{Merriam-Webster2017}
\citation{Kallio2011}
\citation{Henry2014}
\citation{Linke2014}
\citation{BadMouth2012}
\citation{Kaminsky2016}
\@writefile{toc}{\contentsline {subsection}{\numberline {3.2}Moral Reasons}{7}}
\@writefile{toc}{\contentsline {subsection}{\numberline {3.3}Inaccessibility of Game Devices}{7}}
\citation{Merriam-Webster2017}
\citation{Kallio2011}
\citation{Gandasegui2010}
\citation{Kallio2011}
\citation{Klimmt2006}
\citation{Gandasegui2010}
\citation{Holmes2017}
\citation{Homburg2005}
\citation{Simon2017}
\citation{Nelson1970}
\citation{Homburg2005}
\citation{Simon2017}
\@writefile{toc}{\contentsline {subsection}{\numberline {3.4}Inaccessibility of Games}{8}}
\@writefile{toc}{\contentsline {subsection}{\numberline {3.5}Costs}{8}}
\citation{Lazzaro2004}
\citation{Holmes2017}
\citation{Lovato2015}
\citation{Carmichael2011}
\citation{Juul2010}
\citation{Przybylski2010}
\citation{Klimmt2006}
\citation{Juul2009}
\citation{Qin2009}
\citation{Kuehn2014}
\@writefile{toc}{\contentsline {subsection}{\numberline {3.6}Time Constraints}{9}}
\@writefile{toc}{\contentsline {subsection}{\numberline {3.7}Complexity}{9}}
\citation{Gandasegui2010}
\citation{Klimmt2006}
\citation{Juul2009}
\citation{Nelson1970}
\citation{Scheibehenne2008}
\citation{Iyengar2000}
\citation{Chernev2014}
\citation{Mick2017}
\@writefile{toc}{\contentsline {subsection}{\numberline {3.8}Unfamiliarity}{10}}
\@writefile{toc}{\contentsline {subsection}{\numberline {3.9}\textst  {?!Game Theme/Type!?}}{10}}
\@writefile{toc}{\contentsline {subsection}{\numberline {3.10}Too much choice}{10}}
\citation{SteamSpy2017}
\citation{Scheibehenne2008}
\citation{Nacke2014}
\citation{Iwata2011}
\citation{Adams2002}
\citation{Kallio2011}
\citation{Adams2000}
\citation{Stewart2011}
\citation{Juul2009}
\citation{Ryliah2013}
\citation{Kallio2011}
\citation{Adams2002}
\citation{Juul2010}
\citation{Adams2002}
\citation{Juul2009}
\citation{Kallio2011}
\citation{Kallio2011}
\@writefile{toc}{\contentsline {section}{\numberline {4}Gamer Types}{11}}
\@writefile{toc}{\contentsline {subsection}{\numberline {4.1}The Core/Hardcore Gamer}{11}}
\@writefile{toc}{\contentsline {subsubsection}{\numberline {4.1.1}Definition}{11}}
\@writefile{toc}{\contentsline {subsubsection}{\numberline {4.1.2}Exemplary played games}{11}}
\citation{Porter2017}
\citation{Hall-Stigerts2015}
\citation{Shaw2010}
\citation{Wikipedia2017}
\citation{Hamari2014}
\citation{Juul2009}
\@writefile{toc}{\contentsline {subsection}{\numberline {4.2}The Casual Gamer}{12}}
\@writefile{toc}{\contentsline {subsubsection}{\numberline {4.2.1}Definition}{12}}
\@writefile{toc}{\contentsline {subsubsection}{\numberline {4.2.2}Exemplary played games}{12}}
\@writefile{toc}{\contentsline {subsection}{\numberline {4.3}The Non-Gamer}{12}}
\@writefile{toc}{\contentsline {subsubsection}{\numberline {4.3.1}Definition}{12}}
\@writefile{toc}{\contentsline {subsubsection}{\numberline {4.3.2}Exemplary played games}{12}}
\@writefile{toc}{\contentsline {subsection}{\numberline {4.4}Remarks}{12}}
\citation{Juul2010}
\citation{Juul2010}
\citation{Lane1999}
\citation{Juul2010}
\citation{Juul2010}
\citation{Adams2000}
\citation{Juul2010}
\citation{Kultima2009}
\citation{Juul2010}
\citation{Lane1999}
\citation{Kultima2009}
\citation{Kultima2009}
\citation{Juul2010}
\citation{Kultima2009}
\citation{Juul2010}
\citation{Kultima2009}
\citation{Juul2010}
\@writefile{toc}{\contentsline {section}{\numberline {5}Definition of Games Types}{13}}
\@writefile{toc}{\contentsline {subsection}{\numberline {5.1}Core Games}{13}}
\@writefile{toc}{\contentsline {subsection}{\numberline {5.2}Casual Games}{13}}
\citation{Juul2010}
\citation{Juul2010}
\citation{Juul2010}
\@writefile{toc}{\contentsline {subsection}{\numberline {5.3}Remarks}{14}}
\@writefile{toc}{\contentsline {subsection}{\numberline {5.4}Comparisons}{14}}
\citation{Barefoot2013}
\@writefile{toc}{\contentsline {section}{\numberline {6}Exemplary Games compared}{16}}
\@writefile{toc}{\contentsline {section}{\numberline {7}Framework Draft}{17}}
\@writefile{lof}{\contentsline {figure}{\numberline {1}{\ignorespaces Framework to Model - Motives and Barriers for Video Games}}{17}}
\newlabel{fig:framework}{{1}{17}}
\bibstyle{apalike-url}
\bibdata{library}
\bibcite{11bit2014}{11bit Studios, 2014}
\bibcite{Adams2000}{Adams, 2000}
\bibcite{Adams2002}{Adams, 2002}
\bibcite{BadMouth2012}{BadMouth, 2012}
\bibcite{Barefoot2013}{Barefoot, 2013}
\bibcite{Bartle1999}{Bartle, 1999}
\bibcite{Billieux2013}{Billieux et\nobreakspace  {}al., 2013}
\bibcite{Boyle2012}{Boyle et\nobreakspace  {}al., 2012}
\bibcite{budd_aesthetics_1998}{Budd, 1998}
\bibcite{Carmichael2011}{Carmichael, 2011}
\bibcite{Chernev2014}{Chernev et\nobreakspace  {}al., 2014}
\bibcite{Cheyne2006}{Cheyne et\nobreakspace  {}al., 2006}
\bibcite{Ferguson2014}{Ferguson et\nobreakspace  {}al., 2014}
\bibcite{Freitas2006}{Freitas, 2006}
\bibcite{Gandasegui2010}{Gandasegui, 2010}
\bibcite{Gert2016}{Gert and Gert, 2016}
\bibcite{Hall-Stigerts2015}{Hall-Stigerts, 2013}
\bibcite{Hamari2014}{Hamari and Tuunanen, 2014}
\bibcite{Hennion2007}{Hennion, 2007}
\bibcite{Henry2014}{Henry et\nobreakspace  {}al., 2014}
\bibcite{Holmes2017}{Holmes, 2017}
\bibcite{Homburg2005}{Homburg et\nobreakspace  {}al., 2005}
\bibcite{IGDA2006}{IGDA, 2006}
\bibcite{Iyengar2000}{Iyengar and Lepper, 2000}
\bibcite{Juul2009}{Juul, 2009}
\bibcite{Juul2010}{Juul, 2010}
\bibcite{Kahn2015}{Kahn et\nobreakspace  {}al., 2015}
\bibcite{Kallio2011}{Kallio et\nobreakspace  {}al., 2011}
\bibcite{Kaminsky2016}{Kaminsky, 2016}
\bibcite{Kaye2012}{Kaye and Bryce, 2012}
\bibcite{Kiili2005}{Kiili, 2005}
\bibcite{Klimmt2006}{Klimmt and Hartmann, 2006}
\bibcite{Koerth-Baker2016}{Koerth-Baker, 2016}
\bibcite{Kuehn2014}{K{\"{u}}hn et\nobreakspace  {}al., 2014}
\bibcite{Kuittinen2007}{Kuittinen et\nobreakspace  {}al., 2007}
\bibcite{Kultima2009}{Kultima, 2009}
\bibcite{Laffan2016}{Laffan et\nobreakspace  {}al., 2016}
\bibcite{Lane1999}{Lane et\nobreakspace  {}al., 1999}
\bibcite{Lazzaro2004}{Lazzaro, 2004}
\bibcite{Leigh2011}{Leigh, 2011}
\bibcite{Li2011}{Li et\nobreakspace  {}al., 2011}
\bibcite{Linke2014}{Linke, 2014}
\bibcite{Lovato2015}{Lovato, 2015}
\bibcite{MacLeod2016}{MacLeod, 2016}
\bibcite{Maslow1943}{Maslow, 1943}
\bibcite{McClelland1987}{McClelland, 1987}
\bibcite{Merriam-Webster1995}{Merriam-Webster, 1995}
\bibcite{Merriam-Webster2017}{Merriam-Webster, 2017}
\bibcite{Mick2017}{Mick et\nobreakspace  {}al., 2017}
\bibcite{Murray1999}{Murray, 1999}
\bibcite{Nacke2014}{Nacke et\nobreakspace  {}al., 2014}
\bibcite{Nacke2008}{Nacke and Lindley, 2008}
\bibcite{Nelson1970}{Nelson, 1970}
\bibcite{Iwata2011}{Nintendo, 2011}
\bibcite{Oliver2016}{Oliver et\nobreakspace  {}al., 2016}
\bibcite{Porter2017}{Porter, 2017}
\bibcite{Przybylski2010}{Przybylski et\nobreakspace  {}al., 2010}
\bibcite{Qin2009}{Qin et\nobreakspace  {}al., 2009}
\bibcite{Reinecke2009}{Reinecke, 2009}
\bibcite{Ryan2006}{Ryan et\nobreakspace  {}al., 2006}
\bibcite{Ryliah2013}{Ryliah, 2013}
\bibcite{Scharkow2015}{Scharkow et\nobreakspace  {}al., 2015}
\bibcite{Scheibehenne2008}{Scheibehenne, 2008}
\bibcite{Schellong2014a}{Schellong, 2014}
\bibcite{Shaw2010}{Shaw, 2010}
\bibcite{Sherry2006}{Sherry et\nobreakspace  {}al., 2006}
\bibcite{Simon2017}{Simon et\nobreakspace  {}al., 2017}
\bibcite{SteamSpy2017}{SteamSpy, 2017}
\bibcite{Stewart2011}{Stewart, 2011}
\bibcite{Tseng2011}{Tseng, 2011}
\bibcite{Vaughn2015}{Vaughn, 2015}
\bibcite{Vorderer2003}{Vorderer et\nobreakspace  {}al., 2003}
\bibcite{Weibel2011}{Weibel and Wissmath, 2011}
\bibcite{Wikipedia2017}{Wikipedia, 2017}
\bibcite{Yee2007}{Yee, 2007}
\bibcite{Zangwill2014}{Zangwill, 2014}
\bibcite{Zeigler-Hill2015}{Zeigler-Hill and Monica, 2015}
\bibcite{Zillmann1988}{Zillmann, 1988}
