\relax 
\citation{Pardee1990}
\citation{MerriamWebsterBarrier2017}
\citation{Maslow1943}
\citation{Ryan2006}
\citation{Kaye2012}
\citation{McClelland1987}
\citation{Zillmann1988}
\citation{Lazzaro2004}
\@writefile{lof}{\contentsline {figure}{\numberline {1}{\ignorespaces Conceptual Model - Video Games: Motives and Barriers}}{1}}
\newlabel{fig:framework}{{1}{1}}
\@writefile{toc}{\contentsline {section}{\numberline {1}Hypotheses}{1}}
\@writefile{toc}{\contentsline {subsection}{\numberline {1.1}General Hypotheses}{1}}
\@writefile{toc}{\contentsline {subsection}{\numberline {1.2}Motive Hypotheses}{1}}
\citation{Cheyne2006}
\citation{Koerth-Baker2016}
\citation{Murray1999}
\citation{Klimmt2006}
\citation{Klimmt2006}
\citation{McClelland1987}
\citation{Lazzaro2004}
\citation{Stewart2011}
\citation{Gandasegui2010}
\citation{Juul2009}
\citation{Scharkow2015}
\citation{Nelson1970}
\citation{Homburg2005}
\citation{Simon2017}
\@writefile{toc}{\contentsline {subsection}{\numberline {1.3}Barrier Hypotheses}{2}}
\citation{Kuehn2014}
\citation{Nelson1970}
\citation{SteamSpy2017}
\citation{Iyengar2000}
\citation{Scheibehenne2008}
\citation{Juul2010}
\@writefile{toc}{\contentsline {subsection}{\numberline {1.4}Gamer Type Hypotheses}{3}}
\@writefile{toc}{\contentsline {subsection}{\numberline {1.5}Game Type Hypotheses}{3}}
\@writefile{toc}{\contentsline {subsubsection}{\numberline {1.5.1}Hypotheses regarding the effects of Core Games on Motives for Video Game Use}{3}}
\citation{Billieux2013}
\citation{Vorderer2003}
\citation{Kaye2012}
\citation{Elliott2012}
\citation{Adams2000}
\citation{Vorderer2003}
\citation{Yee2007}
\citation{Hefner2007}
\citation{Zillmann1988}
\citation{Rieger2014}
\citation{Reinecke2009}
\citation{Williams2008}
\citation{Sherry2006}
\citation{Oliver2016}
\citation{Juul2010}
\citation{Kultima2009}
\citation{Weibel2011}
\citation{Gallagher2002}
\citation{Klimmt2006}
\citation{Juul2010}
\citation{Juul2010}
\citation{InternationalGameDevelopersAssociation2009}
\citation{Vorderer2003}
\citation{InternationalGameDevelopersAssociation2009}
\citation{Juul2010}
\citation{InternationalGameDevelopersAssociation2009}
\citation{Zillmann1988}
\citation{Rieger2014}
\citation{Reinecke2009}
\citation{Williams2008}
\citation{Sherry2006}
\citation{InternationalGameDevelopersAssociation2009}
\citation{InternationalGameDevelopersAssociation2009}
\citation{Weibel2011}
\citation{Kultima2009}
\citation{InternationalGameDevelopersAssociation2009}
\@writefile{toc}{\contentsline {subsubsection}{\numberline {1.5.2}Hypotheses regarding the effects of Casual Games on Motives for Video Game Use}{5}}
\citation{Juul2010}
\citation{Lane1999}
\citation{InternationalGameDevelopersAssociation2009}
\citation{Kuo2016}
\citation{Weibel2011}
\citation{Gallagher2002}
\citation{Juul2010}
\citation{SteamSpy2017}
\citation{Statista2016}
\citation{Statista2013}
\citation{Pocketgamer2017}
\citation{Adams2000}
\citation{Juul2010}
\citation{Gandasegui2010}
\citation{Juul2009}
\citation{Adams2000}
\citation{Gandasegui2010}
\citation{Juul2009}
\citation{Przybylski2010}
\citation{SteamSpy2017}
\citation{Juul2010}
\citation{Lane1999}
\citation{Kultima2009}
\citation{Kultima2009}
\@writefile{toc}{\contentsline {subsubsection}{\numberline {1.5.3}Hypotheses regarding the effects of Core Games on Barriers against Video Game Use}{6}}
\@writefile{toc}{\contentsline {subsubsection}{\numberline {1.5.4}Hypotheses regarding the effects of Casual Games on Barriers against Video Game Use}{6}}
\citation{InternationalGameDevelopersAssociation2009}
\citation{InternationalGameDevelopersAssociation2009}
\citation{IGDA2006}
\citation{Kultima2009}
\citation{Anand2014}
\citation{InternationalGameDevelopersAssociation2009}
\citation{Kultima2009}
\citation{InternationalGameDevelopersAssociation2009}
\citation{Juul2010}
\citation{Kultima2009}
\citation{Trefry2010}
\citation{Kultima2009}
\citation{Juul2010}
\citation{InternationalGameDevelopersAssociation2009}
\citation{InternationalGameDevelopersAssociation2009}
\citation{Kultima2009}
\citation{Trefry2010}
\citation{Juul2010}
\citation{Pocketgamer2017}
\bibstyle{apalike-url}
\bibdata{library}
\bibcite{Adams2000}{Adams, 2000}
\bibcite{Billieux2013}{Billieux et\nobreakspace  {}al., 2013}
\bibcite{Cheyne2006}{Cheyne et\nobreakspace  {}al., 2006}
\bibcite{Elliott2012}{Elliott et\nobreakspace  {}al., 2012}
\bibcite{Gallagher2002}{Gallagher and Park, 2002}
\bibcite{Gandasegui2010}{Gandasegui, 2010}
\bibcite{Hefner2007}{Hefner et\nobreakspace  {}al., }
\bibcite{Homburg2005}{Homburg et\nobreakspace  {}al., 2005}
\bibcite{IGDA2006}{IGDA, 2006}
\bibcite{InternationalGameDevelopersAssociation2009}{IGDA, 2009}
\bibcite{Iyengar2000}{Iyengar and Lepper, 2000}
\bibcite{Juul2009}{Juul, 2009}
\bibcite{Juul2010}{Juul, 2010}
\bibcite{Kaye2012}{Kaye and Bryce, 2012}
\bibcite{Klimmt2006}{Klimmt and Hartmann, 2006}
\bibcite{Koerth-Baker2016}{Koerth-Baker, 2016}
\bibcite{Kuehn2014}{K{\"{u}}hn et\nobreakspace  {}al., 2014}
\bibcite{Kultima2009}{Kultima, 2009}
\bibcite{Anand2014}{Kumar, 2014}
\bibcite{Kuo2016}{Kuo et\nobreakspace  {}al., 2016}
\bibcite{Lane1999}{Lane et\nobreakspace  {}al., 1999}
\bibcite{Lazzaro2004}{Lazzaro, 2004}
\bibcite{Maslow1943}{Maslow, 1943}
\bibcite{McClelland1987}{McClelland, 1987}
\bibcite{MerriamWebsterBarrier2017}{Merriam-Webster, 2017}
\bibcite{Murray1999}{Murray, 1999}
\bibcite{Nelson1970}{Nelson, 1970}
\bibcite{Oliver2016}{Oliver et\nobreakspace  {}al., 2016}
\bibcite{Pardee1990}{Pardee, 1990}
\bibcite{Pocketgamer2017}{Pocketgamer.biz, 2017}
\bibcite{Przybylski2010}{Przybylski et\nobreakspace  {}al., 2010}
\bibcite{Reinecke2009}{Reinecke, 2009}
\bibcite{Rieger2014}{Rieger et\nobreakspace  {}al., 2014}
\bibcite{Ryan2006}{Ryan et\nobreakspace  {}al., 2006}
\bibcite{Scharkow2015}{Scharkow et\nobreakspace  {}al., 2015}
\bibcite{Scheibehenne2008}{Scheibehenne, 2008}
\bibcite{Sherry2006}{Sherry et\nobreakspace  {}al., 2006}
\bibcite{Simon2017}{Simon et\nobreakspace  {}al., 2017}
\bibcite{Statista2013}{Statista, 2013}
\bibcite{Statista2016}{Statista, 2016}
\bibcite{SteamSpy2017}{SteamSpy, 2017}
\bibcite{Stewart2011}{Stewart, 2011}
\bibcite{Trefry2010}{Trefry, 2010}
\bibcite{Vorderer2003}{Vorderer et\nobreakspace  {}al., 2003}
\bibcite{Weibel2011}{Weibel and Wissmath, 2011}
\bibcite{Williams2008}{Williams et\nobreakspace  {}al., 2008}
\bibcite{Yee2007}{Yee, 2007}
\bibcite{Zillmann1988}{Zillmann, 1988}
