Title,Score
Angry Birds Star Wars,55.00
Assassin's Creed IV: Black Flag,81.00
Battlefield 4,75.00
Call of Duty: Ghosts,77.40
Crimson Dragon,56.11
Dead Rising 3,78.45
FIFA 14,89.92
Fighter Within,24.68
Forza Motorsport 5,	79.49
Just Dance 2014,63.33
Killer Instinct,74.50
Lego Marvel Super Heroes,70.68
LocoCycle,51.38
Madden NFL 25,79.73
NBA 2K14,87.12
NBA Live 14,35.00
Need for Speed Rivals,79.08
Powerstar Golf,65.80
Ryse: Son of Rome,64.30
Skylanders: Swap Force,80.00
Zoo Tycoon,70.10
Zumba Fitness: World Party,74.67