\relax 
\@writefile{toc}{\contentsline {section}{\numberline {1}Introduction}{1}}
\@writefile{toc}{\contentsline {section}{\numberline {2}Foundations}{1}}
\@writefile{toc}{\contentsline {subsection}{\numberline {2.1}Foundations of the Video Game Industry}{1}}
\@writefile{toc}{\contentsline {subsection}{\numberline {2.2}Foundational Theories in Motive Research}{1}}
\@writefile{toc}{\contentsline {subsection}{\numberline {2.3}Literature Overview: Motives and Barriers}{1}}
\@writefile{toc}{\contentsline {section}{\numberline {3}Hypotheses Building and Model Development}{1}}
\@writefile{toc}{\contentsline {subsection}{\numberline {3.1}Synthesis of Motives and Barriers based on current research literature}{1}}
\@writefile{toc}{\contentsline {subsection}{\numberline {3.2}Sorting Motives and Barriers into Meta-Clusters/Meta-Categories}{2}}
\@writefile{toc}{\contentsline {subsection}{\numberline {3.3}Motives}{2}}
\@writefile{toc}{\contentsline {subsubsection}{\numberline {3.3.1}Emotional Motives and their direct effects on Video Game Use}{2}}
\@writefile{toc}{\contentsline {subsubsection}{\numberline {3.3.2}Social Motives and their direct effects on Video Game Use}{2}}
\@writefile{toc}{\contentsline {subsubsection}{\numberline {3.3.3}Medium based Motives and their direct effects on Video Game Use}{2}}
\@writefile{toc}{\contentsline {subsection}{\numberline {3.4}Barriers}{2}}
\@writefile{toc}{\contentsline {subsubsection}{\numberline {3.4.1}Medium related Barriers and their direct effects on Video Game Use}{2}}
\@writefile{toc}{\contentsline {subsubsection}{\numberline {3.4.2}Resource related Barriers and their direct effects on Video Game Use}{2}}
\@writefile{toc}{\contentsline {subsubsection}{\numberline {3.4.3}Cognitive/Coordinative Barriers and their direct effects on Video Game Use}{2}}
\@writefile{toc}{\contentsline {subsection}{\numberline {3.5}Gamer Types}{2}}
\@writefile{toc}{\contentsline {subsubsection}{\numberline {3.5.1}The Core Gamer Type and its moderating effects on Video Game Use}{2}}
\@writefile{toc}{\contentsline {subsubsection}{\numberline {3.5.2}The Casual Gamer Type and its moderating effects on Video Game Use}{2}}
\@writefile{toc}{\contentsline {subsubsection}{\numberline {3.5.3}The Non-Gamer Type and its moderating effects on Video Game Use}{2}}
\@writefile{toc}{\contentsline {subsection}{\numberline {3.6}Games Types}{2}}
\@writefile{toc}{\contentsline {subsubsection}{\numberline {3.6.1}The Core Games Type and its moderating effects on Video Game Use}{2}}
\@writefile{toc}{\contentsline {subsubsection}{\numberline {3.6.2}The Casual Games Type and its moderating effects on Video Game Use}{2}}
\@writefile{toc}{\contentsline {subsection}{\numberline {3.7}Model Overview}{2}}
\@writefile{toc}{\contentsline {section}{\numberline {4}Model Testing}{2}}
\@writefile{toc}{\contentsline {subsection}{\numberline {4.1}Presentation of the used research methodology/survey design/...}{2}}
\@writefile{toc}{\contentsline {subsection}{\numberline {4.2}Evaluation of the data (sample size/sample composition/reliability/validity/...)}{2}}
\@writefile{toc}{\contentsline {subsection}{\numberline {4.3}Results}{2}}
\@writefile{toc}{\contentsline {subsubsection}{\numberline {4.3.1}Testing of Hypotheses}{2}}
\@writefile{toc}{\contentsline {subsubsection}{\numberline {4.3.2}Further results}{2}}
\@writefile{toc}{\contentsline {section}{\numberline {5}Discussion}{2}}
\bibstyle{apalike-url}
\bibdata{library}
