\relax 
\providecommand\hyper@newdestlabel[2]{}
\providecommand\HyperFirstAtBeginDocument{\AtBeginDocument}
\HyperFirstAtBeginDocument{\ifx\hyper@anchor\@undefined
\global\let\oldcontentsline\contentsline
\gdef\contentsline#1#2#3#4{\oldcontentsline{#1}{#2}{#3}}
\global\let\oldnewlabel\newlabel
\gdef\newlabel#1#2{\newlabelxx{#1}#2}
\gdef\newlabelxx#1#2#3#4#5#6{\oldnewlabel{#1}{{#2}{#3}}}
\AtEndDocument{\ifx\hyper@anchor\@undefined
\let\contentsline\oldcontentsline
\let\newlabel\oldnewlabel
\fi}
\fi}
\global\let\hyper@last\relax 
\gdef\HyperFirstAtBeginDocument#1{#1}
\providecommand\HyField@AuxAddToFields[1]{}
\providecommand\HyField@AuxAddToCoFields[2]{}
\select@language{english}
\@writefile{toc}{\select@language{english}}
\@writefile{lof}{\select@language{english}}
\@writefile{lot}{\select@language{english}}
\@writefile{toc}{\contentsline {section}{Contents}{I}{section*.1}}
\@writefile{toc}{\contentsline {section}{List of Abbreviations}{II}{section*.2}}
\@writefile{toc}{\contentsline {section}{List of Figures}{III}{section*.4}}
\citation{SteamSpy2017}
\@writefile{brf}{\backcite{SteamSpy2017}{{IV}{(document)}{Doc-Start}}}
\@writefile{toc}{\contentsline {section}{List of Tables}{IV}{section*.5}}
\citation{suits2005grasshopper}
\citation{Team2017}
\citation{Statista2016b}
\citation{BoxOfficeMojo2017}
\citation{Goldfarb2013}
\citation{Lander2017}
\citation{Statista2017a}
\citation{Hennig-Thurau2013}
\citation{Landsman2011}
\citation{Oliver2016}
\citation{suits2005grasshopper}
\citation{Pardee1990}
\citation{Bartle1996}
\citation{Lazzaro2004}
\citation{Ryan2006}
\citation{Klimmt2006}
\citation{Sherry2006}
\citation{Yee2007}
\citation{Kallio2011}
\citation{MerriamWebsterBarrier2017}
\citation{Lazzaro2004}
\citation{Klimmt2006}
\citation{Kallio2011}
\citation{Gandasegui2010}
\@writefile{toc}{\contentsline {section}{\numberline {1}Introduction}{1}{section.1}}
\@writefile{brf}{\backcite{suits2005grasshopper}{{1}{1}{section.1}}}
\@writefile{brf}{\backcite{Team2017}{{1}{1}{section.1}}}
\@writefile{brf}{\backcite{Statista2016b}{{1}{1}{section.1}}}
\@writefile{brf}{\backcite{BoxOfficeMojo2017}{{1}{1}{section.1}}}
\@writefile{brf}{\backcite{Goldfarb2013}{{1}{1}{section.1}}}
\@writefile{brf}{\backcite{Lander2017}{{1}{1}{section.1}}}
\@writefile{brf}{\backcite{Statista2017a}{{1}{1}{section.1}}}
\@writefile{brf}{\backcite{Hennig-Thurau2013}{{1}{1}{section.1}}}
\@writefile{brf}{\backcite{Landsman2011}{{1}{1}{section.1}}}
\@writefile{brf}{\backcite{Oliver2016}{{1}{1}{section.1}}}
\@writefile{brf}{\backcite{suits2005grasshopper}{{1}{1}{section.1}}}
\@writefile{brf}{\backcite{Pardee1990}{{1}{1}{section.1}}}
\@writefile{brf}{\backcite{Bartle1996}{{1}{1}{section.1}}}
\@writefile{brf}{\backcite{Lazzaro2004}{{1}{1}{section.1}}}
\@writefile{brf}{\backcite{Ryan2006}{{1}{1}{section.1}}}
\@writefile{brf}{\backcite{Klimmt2006}{{1}{1}{section.1}}}
\@writefile{brf}{\backcite{Sherry2006}{{1}{1}{section.1}}}
\@writefile{brf}{\backcite{Yee2007}{{1}{1}{section.1}}}
\@writefile{brf}{\backcite{Kallio2011}{{1}{1}{section.1}}}
\@writefile{brf}{\backcite{MerriamWebsterBarrier2017}{{1}{1}{section.1}}}
\@writefile{brf}{\backcite{Lazzaro2004}{{1}{1}{section.1}}}
\@writefile{brf}{\backcite{Klimmt2006}{{1}{1}{section.1}}}
\@writefile{brf}{\backcite{Kallio2011}{{1}{1}{section.1}}}
\citation{kent2010ultimate}
\citation{Langshaw2014}
\citation{Ernkvist2008}
\citation{Hennig-Thurau2013}
\citation{Hennig-Thurau2013}
\citation{Sinclair2017}
\citation{Statista2016c}
\citation{Team2017}
\@writefile{brf}{\backcite{Gandasegui2010}{{2}{1}{section.1}}}
\@writefile{toc}{\contentsline {section}{\numberline {2}Foundations}{2}{section.2}}
\@writefile{toc}{\contentsline {subsection}{\numberline {2.1}Foundations of the Video Game Industry}{2}{subsection.2.1}}
\@writefile{brf}{\backcite{kent2010ultimate}{{2}{2.1}{subsection.2.1}}}
\@writefile{brf}{\backcite{Langshaw2014}{{2}{2.1}{subsection.2.1}}}
\@writefile{brf}{\backcite{Ernkvist2008}{{2}{2.1}{subsection.2.1}}}
\@writefile{brf}{\backcite{Hennig-Thurau2013}{{2}{2.1}{subsection.2.1}}}
\@writefile{brf}{\backcite{Hennig-Thurau2013}{{2}{2.1}{subsection.2.1}}}
\citation{Rochet2003}
\citation{Katz1985}
\citation{Economides1992}
\citation{Clements2005}
\citation{Rohlfs1974}
\citation{Economides1992}
\citation{Rochet2003}
\citation{Marchand2016}
\citation{suits2005grasshopper}
\citation{Juul2010}
\citation{vhb2017}
\@writefile{brf}{\backcite{Sinclair2017}{{3}{2.1}{subsection.2.1}}}
\@writefile{brf}{\backcite{Statista2016c}{{3}{2.1}{subsection.2.1}}}
\@writefile{brf}{\backcite{Team2017}{{3}{2.1}{subsection.2.1}}}
\@writefile{brf}{\backcite{Rochet2003}{{3}{2.1}{subsection.2.1}}}
\@writefile{brf}{\backcite{Katz1985}{{3}{2.1}{subsection.2.1}}}
\@writefile{brf}{\backcite{Economides1992}{{3}{2.1}{subsection.2.1}}}
\@writefile{brf}{\backcite{Clements2005}{{3}{2.1}{subsection.2.1}}}
\@writefile{brf}{\backcite{Rohlfs1974}{{3}{2.1}{subsection.2.1}}}
\@writefile{brf}{\backcite{Economides1992}{{3}{2.1}{subsection.2.1}}}
\@writefile{brf}{\backcite{Rochet2003, Marchand2016}{{3}{2.1}{subsection.2.1}}}
\@writefile{brf}{\backcite{suits2005grasshopper}{{3}{2.1}{subsection.2.1}}}
\@writefile{brf}{\backcite{Juul2010}{{3}{2.1}{subsection.2.1}}}
\@writefile{toc}{\contentsline {subsection}{\numberline {2.2}Foundational Theories in Motive Research}{3}{subsection.2.2}}
\newlabel{theories}{{2.2}{3}{Foundational Theories in Motive Research}{subsection.2.2}{}}
\citation{Deci2000}
\citation{Baard2004}
\citation{Deci2008}
\citation{White1959}
\citation{decharms1968}
\citation{Ryan2000}
\citation{Ryan2006}
\citation{Przybylski2010}
\citation{Klimmt2006}
\citation{White1959}
\citation{Bandura1977}
\citation{bandura1997}
\citation{Klimmt2006}
\citation{White1959}
\citation{Bandura1977}
\citation{Klimmt2006}
\@writefile{brf}{\backcite{vhb2017}{{4}{2.2}{subsection.2.2}}}
\@writefile{brf}{\backcite{Deci2000, Baard2004, Deci2008}{{4}{2.2}{subsection.2.2}}}
\@writefile{brf}{\backcite{White1959}{{4}{2.2}{subsection.2.2}}}
\@writefile{brf}{\backcite{decharms1968}{{4}{2.2}{subsection.2.2}}}
\@writefile{brf}{\backcite{Ryan2000}{{4}{2.2}{subsection.2.2}}}
\@writefile{brf}{\backcite{Ryan2006}{{4}{2.2}{subsection.2.2}}}
\@writefile{brf}{\backcite{Przybylski2010}{{4}{2.2}{subsection.2.2}}}
\@writefile{brf}{\backcite{Klimmt2006}{{4}{2.2}{subsection.2.2}}}
\@writefile{brf}{\backcite{White1959}{{4}{2.2}{subsection.2.2}}}
\@writefile{brf}{\backcite{Bandura1977}{{4}{2.2}{subsection.2.2}}}
\@writefile{brf}{\backcite{bandura1997}{{4}{2.2}{subsection.2.2}}}
\@writefile{brf}{\backcite{Klimmt2006}{{4}{2.2}{subsection.2.2}}}
\@writefile{brf}{\backcite{White1959}{{4}{2.2}{subsection.2.2}}}
\@writefile{brf}{\backcite{Bandura1977}{{4}{2.2}{subsection.2.2}}}
\citation{Sherry2006}
\citation{Katz1959}
\citation{Katz1973}
\citation{Ruggiero2000}
\citation{Katz1973}
\citation{Sherry2006}
\citation{Zillmann1984}
\citation{Zillmann1988}
\citation{zillmann2000}
\citation{Yee2008}
\citation{Graham2013}
\citation{Yee2011}
\citation{Graham2013}
\citation{Graham2013}
\citation{Winter1998}
\@writefile{brf}{\backcite{Klimmt2006}{{5}{2.2}{subsection.2.2}}}
\@writefile{brf}{\backcite{Sherry2006}{{5}{2.2}{subsection.2.2}}}
\@writefile{brf}{\backcite{Katz1959, Katz1973, Ruggiero2000}{{5}{2.2}{subsection.2.2}}}
\@writefile{brf}{\backcite{Katz1973, Sherry2006}{{5}{2.2}{subsection.2.2}}}
\@writefile{brf}{\backcite{Zillmann1984, Zillmann1988}{{5}{2.2}{subsection.2.2}}}
\@writefile{brf}{\backcite{zillmann2000}{{5}{2.2}{subsection.2.2}}}
\@writefile{brf}{\backcite{Yee2008}{{5}{2.2}{subsection.2.2}}}
\@writefile{brf}{\backcite{Graham2013}{{5}{2.2}{subsection.2.2}}}
\@writefile{brf}{\backcite{Yee2011}{{5}{2.2}{subsection.2.2}}}
\@writefile{brf}{\backcite{Graham2013}{{5}{2.2}{subsection.2.2}}}
\citation{Bartle1996}
\citation{Bartle1996}
\citation{Lazzaro2004}
\citation{Lazzaro2004}
\@writefile{brf}{\backcite{Graham2013}{{6}{2.2}{subsection.2.2}}}
\@writefile{brf}{\backcite{Winter1998}{{6}{2.2}{subsection.2.2}}}
\@writefile{toc}{\contentsline {subsection}{\numberline {2.3}Motives and Barriers: Literature Overview}{6}{subsection.2.3}}
\newlabel{review}{{2.3}{6}{Motives and Barriers: Literature Overview}{subsection.2.3}{}}
\@writefile{brf}{\backcite{Bartle1996}{{6}{2.3}{subsection.2.3}}}
\@writefile{brf}{\backcite{Bartle1996}{{6}{2.3}{subsection.2.3}}}
\@writefile{brf}{\backcite{Lazzaro2004}{{6}{2.3}{subsection.2.3}}}
\citation{Klimmt2006}
\citation{White1959}
\citation{Bandura1977}
\citation{Klimmt2006}
\citation{Ryan2006}
\citation{suits2005grasshopper}
\citation{White1959}
\citation{Klimmt2006}
\citation{Ryan2001}
\citation{Ryan2006}
\citation{Przybylski2010}
\citation{Sherry2006}
\citation{zillmann1985}
\citation{Sherry2006}
\citation{Yee2007}
\citation{Yee2008}
\citation{Yee2007}
\@writefile{brf}{\backcite{Lazzaro2004}{{7}{2.3}{subsection.2.3}}}
\@writefile{brf}{\backcite{Klimmt2006}{{7}{2.3}{subsection.2.3}}}
\@writefile{brf}{\backcite{White1959}{{7}{2.3}{subsection.2.3}}}
\@writefile{brf}{\backcite{Bandura1977}{{7}{2.3}{subsection.2.3}}}
\@writefile{brf}{\backcite{Klimmt2006}{{7}{2.3}{subsection.2.3}}}
\@writefile{brf}{\backcite{Ryan2006}{{7}{2.3}{subsection.2.3}}}
\@writefile{brf}{\backcite{suits2005grasshopper}{{7}{2.3}{subsection.2.3}}}
\@writefile{brf}{\backcite{White1959}{{7}{2.3}{subsection.2.3}}}
\@writefile{brf}{\backcite{Klimmt2006}{{7}{2.3}{subsection.2.3}}}
\@writefile{brf}{\backcite{Ryan2001}{{7}{2.3}{subsection.2.3}}}
\@writefile{brf}{\backcite{Ryan2006}{{7}{2.3}{subsection.2.3}}}
\@writefile{brf}{\backcite{Przybylski2010}{{7}{2.3}{subsection.2.3}}}
\@writefile{brf}{\backcite{Sherry2006}{{7}{2.3}{subsection.2.3}}}
\@writefile{brf}{\backcite{zillmann1985}{{7}{2.3}{subsection.2.3}}}
\@writefile{brf}{\backcite{Sherry2006}{{7}{2.3}{subsection.2.3}}}
\@writefile{brf}{\backcite{Yee2007, Yee2008}{{7}{2.3}{subsection.2.3}}}
\citation{Kallio2011}
\citation{Stewart2011}
\citation{Bartle1996}
\citation{keirsey1984}
\citation{Bateman2011}
\citation{Lazzaro2004}
\citation{caillois1961}
\citation{Tseng2011}
\citation{Billieux2013}
\citation{Graham2013}
\citation{Leack2017}
\citation{Billieux2013}
\citation{Graham2013}
\citation{Lazzaro2004}
\citation{Ryan2006}
\citation{Przybylski2010}
\citation{Klimmt2006}
\citation{Kallio2011}
\@writefile{brf}{\backcite{Yee2007}{{8}{2.3}{subsection.2.3}}}
\@writefile{brf}{\backcite{Kallio2011}{{8}{2.3}{subsection.2.3}}}
\@writefile{brf}{\backcite{Stewart2011}{{8}{2.3}{subsection.2.3}}}
\@writefile{brf}{\backcite{Bartle1996}{{8}{2.3}{subsection.2.3}}}
\@writefile{brf}{\backcite{keirsey1984}{{8}{2.3}{subsection.2.3}}}
\@writefile{brf}{\backcite{Bateman2011}{{8}{2.3}{subsection.2.3}}}
\@writefile{brf}{\backcite{Lazzaro2004}{{8}{2.3}{subsection.2.3}}}
\@writefile{brf}{\backcite{caillois1961}{{8}{2.3}{subsection.2.3}}}
\@writefile{brf}{\backcite{Tseng2011}{{8}{2.3}{subsection.2.3}}}
\@writefile{brf}{\backcite{Billieux2013}{{8}{2.3}{subsection.2.3}}}
\@writefile{brf}{\backcite{Graham2013}{{8}{2.3}{subsection.2.3}}}
\@writefile{brf}{\backcite{Leack2017}{{8}{2.3}{subsection.2.3}}}
\@writefile{brf}{\backcite{Billieux2013}{{8}{2.3}{subsection.2.3}}}
\@writefile{brf}{\backcite{Graham2013}{{8}{2.3}{subsection.2.3}}}
\newlabel{literature_barriers}{{2.3}{8}{Motives and Barriers: Literature Overview}{subsection.2.3}{}}
\citation{Leigh2011}
\citation{Cheese2011}
\citation{Carmichael2011}
\citation{Holmes2017}
\citation{Gandasegui2010}
\citation{Lovato2015}
\citation{popcap2017}
\citation{hipsterwhale2017}
\@writefile{brf}{\backcite{Lazzaro2004}{{9}{2.3}{subsection.2.3}}}
\@writefile{brf}{\backcite{Ryan2006, Przybylski2010}{{9}{2.3}{subsection.2.3}}}
\@writefile{brf}{\backcite{Klimmt2006}{{9}{2.3}{subsection.2.3}}}
\@writefile{brf}{\backcite{Kallio2011}{{9}{2.3}{subsection.2.3}}}
\@writefile{brf}{\backcite{Leigh2011}{{9}{2.3}{subsection.2.3}}}
\@writefile{brf}{\backcite{Cheese2011}{{9}{2.3}{subsection.2.3}}}
\@writefile{brf}{\backcite{Carmichael2011}{{9}{2.3}{subsection.2.3}}}
\@writefile{brf}{\backcite{Holmes2017}{{9}{2.3}{subsection.2.3}}}
\@writefile{brf}{\backcite{Gandasegui2010}{{9}{2.3}{subsection.2.3}}}
\@writefile{brf}{\backcite{Lovato2015}{{9}{2.3}{subsection.2.3}}}
\@writefile{brf}{\backcite{popcap2017}{{9}{2.3}{subsection.2.3}}}
\@writefile{brf}{\backcite{hipsterwhale2017}{{9}{2.3}{subsection.2.3}}}
\gdef \LT@i {\LT@entry 
    {1}{112.38463pt}\LT@entry 
    {1}{47.96593pt}\LT@entry 
    {1}{183.11652pt}\LT@entry 
    {1}{183.11652pt}\LT@entry 
    {1}{183.11652pt}}
\newlabel{tab:motives_literature}{{1}{11}{Motives and Barriers: Literature Overview}{table.1}{}}
\@writefile{lot}{\contentsline {table}{\numberline {1}{Videogame motives in literature }}{11}{table.1}}
\gdef \LT@ii {\LT@entry 
    {1}{112.38463pt}\LT@entry 
    {1}{47.96593pt}\LT@entry 
    {1}{183.11652pt}\LT@entry 
    {1}{183.11652pt}\LT@entry 
    {1}{183.11652pt}}
\newlabel{tab:barriers_literature}{{2}{13}{Motives and Barriers: Literature Overview}{table.2}{}}
\@writefile{lot}{\contentsline {table}{\numberline {2}{Videogame barriers in literature }}{13}{table.2}}
\citation{Bartle1996}
\citation{Kahn2015}
\citation{Ryan2006}
\citation{Przybylski2010}
\citation{Lazzaro2004}
\citation{Yee2007}
\citation{Yee2008}
\citation{Kallio2011}
\citation{Stewart2011}
\citation{Billieux2013}
\citation{Kahn2015}
\citation{Tseng2011}
\@writefile{toc}{\contentsline {section}{\numberline {3}Development of a Conceptual Model}{14}{section.3}}
\@writefile{toc}{\contentsline {subsection}{\numberline {3.1}Model Overview}{14}{subsection.3.1}}
\@writefile{lof}{\contentsline {figure}{\numberline {1}{\ignorespaces Model 1 - Motives and barriers for video games use}}{14}{figure.1}}
\newlabel{fig:conceptual_model_a}{{1}{14}{Model 1 - Motives and barriers for video games use}{figure.1}{}}
\@writefile{toc}{\contentsline {subsection}{\numberline {3.2}Motives and Barriers: Literature Synthesis}{14}{subsection.3.2}}
\citation{Billieux2013}
\citation{Sherry2006}
\citation{Ryan2006}
\citation{Przybylski2010}
\citation{Kahn2015}
\citation{Tseng2011}
\citation{Vorderer2003}
\citation{Graham2013}
\citation{Kahn2015}
\citation{Billieux2013}
\citation{Yee2007}
\citation{Yee2008}
\citation{Kallio2011}
\citation{Sherry2006}
\citation{Lazzaro2004}
\@writefile{brf}{\backcite{Bartle1996}{{15}{3.2}{subsection.3.2}}}
\@writefile{brf}{\backcite{Kahn2015}{{15}{3.2}{subsection.3.2}}}
\@writefile{brf}{\backcite{Ryan2006,Przybylski2010}{{15}{3.2}{subsection.3.2}}}
\@writefile{brf}{\backcite{Lazzaro2004}{{15}{3.2}{subsection.3.2}}}
\@writefile{brf}{\backcite{Yee2007,Yee2008}{{15}{3.2}{subsection.3.2}}}
\@writefile{brf}{\backcite{Kallio2011}{{15}{3.2}{subsection.3.2}}}
\@writefile{brf}{\backcite{Stewart2011}{{15}{3.2}{subsection.3.2}}}
\@writefile{brf}{\backcite{Billieux2013}{{15}{3.2}{subsection.3.2}}}
\@writefile{brf}{\backcite{Kahn2015}{{15}{3.2}{subsection.3.2}}}
\@writefile{brf}{\backcite{Tseng2011}{{15}{3.2}{subsection.3.2}}}
\@writefile{brf}{\backcite{Billieux2013}{{15}{3.2}{table.3}}}
\@writefile{brf}{\backcite{Sherry2006}{{15}{3.2}{table.3}}}
\@writefile{brf}{\backcite{Ryan2006, Przybylski2010}{{15}{3.2}{table.3}}}
\@writefile{brf}{\backcite{Kahn2015}{{15}{3.2}{table.3}}}
\@writefile{brf}{\backcite{Tseng2011}{{15}{3.2}{table.3}}}
\@writefile{brf}{\backcite{Vorderer2003}{{15}{3.2}{table.3}}}
\@writefile{brf}{\backcite{Graham2013}{{15}{3.2}{table.3}}}
\@writefile{brf}{\backcite{Kahn2015}{{15}{3.2}{table.3}}}
\@writefile{brf}{\backcite{Billieux2013}{{15}{3.2}{table.3}}}
\@writefile{brf}{\backcite{Yee2007, Yee2008}{{15}{3.2}{table.3}}}
\@writefile{brf}{\backcite{Kallio2011}{{15}{3.2}{table.3}}}
\@writefile{brf}{\backcite{Sherry2006}{{15}{3.2}{table.3}}}
\@writefile{brf}{\backcite{Lazzaro2004}{{15}{3.2}{table.3}}}
\@writefile{lot}{\contentsline {table}{\numberline {3}{\ignorespaces Literature synthesis of motives for video game use}}{16}{table.3}}
\newlabel{tab:synthesis_motives}{{3}{16}{Literature synthesis of motives for video game use}{table.3}{}}
\citation{Lazzaro2004}
\citation{Cole1994}
\citation{Ryan2006}
\citation{Deci2008}
\citation{Przybylski2010}
\citation{Lazzaro2004}
\citation{Sherry2006}
\citation{Yee2007}
\citation{Yee2008}
\citation{Merriam-Webster1995}
\citation{Ferguson2014}
\citation{Vaughn2015}
\citation{Boyle2012}
\citation{Lazzaro2004}
\citation{IGDA2006}
\citation{Kuittinen2007}
\citation{Tseng2011}
\citation{Boyle2012}
\citation{Lazzaro2004}
\citation{Stewart2011}
\citation{Zeigler-Hill2015}
\citation{Reinecke2009}
\citation{Kallio2011}
\citation{Sherry2006}
\citation{Murray1999}
\citation{Lazzaro2004}
\citation{Sherry2006}
\citation{Ryan2006}
\citation{Przybylski2010}
\citation{Kallio2011}
\@writefile{brf}{\backcite{Lazzaro2004}{{17}{3.2}{table.3}}}
\@writefile{brf}{\backcite{Cole1994}{{17}{3.2}{table.3}}}
\@writefile{brf}{\backcite{Ryan2006, Deci2008, Przybylski2010}{{17}{3.2}{table.3}}}
\@writefile{brf}{\backcite{Lazzaro2004}{{17}{3.2}{table.3}}}
\@writefile{brf}{\backcite{Sherry2006}{{17}{3.2}{table.3}}}
\@writefile{brf}{\backcite{Yee2007, Yee2008}{{17}{3.2}{table.3}}}
\@writefile{brf}{\backcite{Boyle2012}{{17}{3.2}{table.3}}}
\@writefile{brf}{\backcite{Lazzaro2004, IGDA2006, Kuittinen2007, Tseng2011, Boyle2012}{{17}{3.2}{table.3}}}
\@writefile{brf}{\backcite{Lazzaro2004,Stewart2011, Zeigler-Hill2015}{{17}{3.2}{table.3}}}
\@writefile{brf}{\backcite{Reinecke2009}{{17}{3.2}{table.3}}}
\@writefile{brf}{\backcite{Kallio2011}{{17}{3.2}{table.3}}}
\@writefile{brf}{\backcite{Sherry2006}{{17}{3.2}{table.3}}}
\@writefile{brf}{\backcite{Murray1999}{{17}{3.2}{table.3}}}
\@writefile{brf}{\backcite{Merriam-Webster1995}{{17}{1}{table.3}}}
\@writefile{brf}{\backcite{Ferguson2014, Vaughn2015}{{17}{1}{table.3}}}
\citation{Murray1999}
\citation{Ryan2006}
\citation{Deci2008}
\citation{Przybylski2010}
\citation{White1959}
\citation{Ryan2000}
\citation{Klimmt2006}
\citation{Bandura1977}
\citation{Lazzaro2004}
\citation{Ryan2006}
\citation{Bartle1996}
\citation{Stewart2011}
\citation{Lazzaro2004}
\citation{Sherry2006}
\citation{Klimmt2006}
\citation{Yee2007}
\citation{Yee2008}
\citation{Kallio2011}
\citation{Billieux2013}
\citation{Kahn2015}
\@writefile{brf}{\backcite{Lazzaro2004}{{18}{3.2}{table.3}}}
\@writefile{brf}{\backcite{Sherry2006}{{18}{3.2}{table.3}}}
\@writefile{brf}{\backcite{Ryan2006}{{18}{3.2}{table.3}}}
\@writefile{brf}{\backcite{Przybylski2010}{{18}{3.2}{table.3}}}
\@writefile{brf}{\backcite{Kallio2011}{{18}{3.2}{table.3}}}
\@writefile{brf}{\backcite{Murray1999}{{18}{3.2}{table.3}}}
\@writefile{brf}{\backcite{Ryan2006, Deci2008, Przybylski2010}{{18}{3.2}{table.3}}}
\@writefile{brf}{\backcite{White1959}{{18}{3.2}{table.3}}}
\@writefile{brf}{\backcite{Ryan2000}{{18}{3.2}{table.3}}}
\@writefile{brf}{\backcite{Klimmt2006}{{18}{3.2}{table.3}}}
\@writefile{brf}{\backcite{Bandura1977}{{18}{3.2}{table.3}}}
\@writefile{brf}{\backcite{Lazzaro2004}{{18}{3.2}{table.3}}}
\@writefile{brf}{\backcite{Ryan2006}{{18}{3.2}{table.3}}}
\@writefile{brf}{\backcite{Bartle1996}{{18}{3.2}{table.3}}}
\@writefile{brf}{\backcite{Stewart2011}{{18}{3.2}{table.3}}}
\@writefile{brf}{\backcite{Lazzaro2004}{{18}{3.2}{table.3}}}
\citation{Lazzaro2004}
\citation{Stewart2011}
\citation{Bartle1996}
\citation{Scharkow2015}
\citation{Kahn2015}
\citation{Stewart2011}
\citation{Kiili2005}
\citation{Freitas2006}
\citation{Ryan2006}
\citation{Przybylski2010}
\citation{Gebauer2017}
\citation{Klimmt2006}
\citation{Juul2010}
\citation{Ryan2006}
\citation{Przybylski2010}
\citation{Johnston2013}
\citation{Przybylski2010}
\citation{Kallio2011}
\citation{Cheese2011}
\citation{Holmes2017}
\citation{Lovato2015}
\citation{Qin2009}
\@writefile{brf}{\backcite{Sherry2006}{{19}{3.2}{table.3}}}
\@writefile{brf}{\backcite{Klimmt2006}{{19}{3.2}{table.3}}}
\@writefile{brf}{\backcite{Yee2007, Yee2008}{{19}{3.2}{table.3}}}
\@writefile{brf}{\backcite{Kallio2011}{{19}{3.2}{table.3}}}
\@writefile{brf}{\backcite{Billieux2013}{{19}{3.2}{table.3}}}
\@writefile{brf}{\backcite{Kahn2015}{{19}{3.2}{table.3}}}
\@writefile{brf}{\backcite{Lazzaro2004}{{19}{3.2}{table.3}}}
\@writefile{brf}{\backcite{Stewart2011}{{19}{3.2}{table.3}}}
\@writefile{brf}{\backcite{Bartle1996}{{19}{3.2}{table.3}}}
\@writefile{brf}{\backcite{Scharkow2015}{{19}{3.2}{table.3}}}
\@writefile{brf}{\backcite{Kahn2015}{{19}{3.2}{table.3}}}
\@writefile{brf}{\backcite{Stewart2011}{{19}{3.2}{table.3}}}
\@writefile{brf}{\backcite{Kiili2005,Freitas2006}{{19}{3.2}{table.3}}}
\@writefile{brf}{\backcite{Ryan2006, Przybylski2010}{{19}{3.2}{table.3}}}
\@writefile{brf}{\backcite{Gebauer2017}{{19}{3.2}{table.3}}}
\@writefile{brf}{\backcite{Klimmt2006}{{19}{3.2}{table.3}}}
\@writefile{brf}{\backcite{Juul2010}{{19}{3.2}{table.3}}}
\@writefile{brf}{\backcite{Ryan2006}{{19}{3.2}{table.3}}}
\@writefile{brf}{\backcite{Przybylski2010}{{19}{3.2}{table.3}}}
\citation{Gandasegui2010}
\citation{Klimmt2006}
\citation{Gandasegui2010}
\citation{Lovato2015}
\citation{Juul2010}
\citation{Gandasegui2010}
\citation{budd_aesthetics_1998}
\citation{Zangwill2014}
\citation{Hennion2007}
\citation{MacLeod2016}
\citation{Gandasegui2010}
\@writefile{brf}{\backcite{Johnston2013}{{20}{3.2}{table.3}}}
\@writefile{brf}{\backcite{Przybylski2010}{{20}{3.2}{table.3}}}
\@writefile{brf}{\backcite{Kallio2011}{{20}{3.2}{table.3}}}
\@writefile{brf}{\backcite{Cheese2011}{{20}{3.2}{table.3}}}
\@writefile{brf}{\backcite{Holmes2017}{{20}{3.2}{table.3}}}
\@writefile{brf}{\backcite{Lovato2015}{{20}{3.2}{table.3}}}
\@writefile{brf}{\backcite{Qin2009}{{20}{3.2}{table.3}}}
\@writefile{brf}{\backcite{Gandasegui2010}{{20}{3.2}{table.3}}}
\@writefile{brf}{\backcite{Klimmt2006}{{20}{3.2}{table.3}}}
\@writefile{brf}{\backcite{Gandasegui2010}{{20}{3.2}{table.3}}}
\@writefile{brf}{\backcite{Lovato2015}{{20}{3.2}{table.3}}}
\@writefile{brf}{\backcite{Juul2010}{{20}{3.2}{table.3}}}
\@writefile{brf}{\backcite{Gandasegui2010}{{20}{3.2}{table.3}}}
\@writefile{brf}{\backcite{budd_aesthetics_1998}{{20}{3.2}{table.3}}}
\@writefile{brf}{\backcite{Zangwill2014}{{20}{3.2}{table.3}}}
\citation{DMA573612011}
\citation{Gebauer2017}
\citation{Smith2014}
\citation{Rae2017}
\citation{Rae2017}
\citation{Gert2016}
\citation{Lazzaro2004}
\citation{Gandasegui2010}
\citation{Lazzaro2004}
\citation{Gandasegui2010}
\citation{Sicart2009}
\citation{Griffiths1999}
\citation{Anderson2001}
\citation{Ferguson2007}
\citation{Merriam-Webster2017}
\citation{Kallio2011}
\citation{Henry2014}
\citation{Linke2014}
\citation{BadMouth2012}
\citation{Kaminsky2016}
\citation{SteamSpy2017}
\@writefile{brf}{\backcite{Hennion2007}{{21}{3.2}{table.3}}}
\@writefile{brf}{\backcite{MacLeod2016}{{21}{3.2}{table.3}}}
\@writefile{brf}{\backcite{Gandasegui2010}{{21}{3.2}{table.3}}}
\@writefile{brf}{\backcite{DMA573612011}{{21}{3.2}{table.3}}}
\@writefile{brf}{\backcite{Gebauer2017}{{21}{3.2}{table.3}}}
\@writefile{brf}{\backcite{Smith2014}{{21}{3.2}{table.3}}}
\@writefile{brf}{\backcite{Rae2017}{{21}{3.2}{table.3}}}
\@writefile{brf}{\backcite{Rae2017}{{21}{3.2}{table.3}}}
\@writefile{brf}{\backcite{Gert2016}{{21}{3.2}{table.3}}}
\@writefile{brf}{\backcite{Lazzaro2004}{{21}{3.2}{table.3}}}
\@writefile{brf}{\backcite{Gandasegui2010}{{21}{3.2}{table.3}}}
\@writefile{brf}{\backcite{Lazzaro2004}{{21}{3.2}{table.3}}}
\@writefile{brf}{\backcite{Gandasegui2010}{{21}{3.2}{table.3}}}
\@writefile{brf}{\backcite{Sicart2009}{{21}{3.2}{table.3}}}
\@writefile{brf}{\backcite{Griffiths1999}{{21}{3.2}{table.3}}}
\@writefile{brf}{\backcite{Anderson2001}{{21}{3.2}{table.3}}}
\@writefile{brf}{\backcite{Ferguson2007}{{21}{3.2}{table.3}}}
\@writefile{brf}{\backcite{Merriam-Webster2017}{{21}{3.2}{table.3}}}
\@writefile{brf}{\backcite{Kallio2011}{{21}{3.2}{table.3}}}
\citation{Homburg2005}
\citation{Simon2017}
\citation{Nelson1970}
\citation{Kallio2011}
\citation{Klimmt2006}
\citation{Gandasegui2010}
\citation{Holmes2017}
\citation{Lazzaro2004}
\citation{Holmes2017}
\citation{Lovato2015}
\citation{Carmichael2011}
\citation{Juul2010}
\citation{Kallio2011}
\citation{Cheese2011}
\@writefile{brf}{\backcite{Henry2014}{{22}{3.2}{table.3}}}
\@writefile{brf}{\backcite{Linke2014, BadMouth2012}{{22}{3.2}{table.3}}}
\@writefile{brf}{\backcite{Kaminsky2016}{{22}{3.2}{table.3}}}
\@writefile{brf}{\backcite{SteamSpy2017}{{22}{3.2}{table.3}}}
\@writefile{brf}{\backcite{Homburg2005, Simon2017}{{22}{3.2}{table.3}}}
\@writefile{brf}{\backcite{Nelson1970}{{22}{3.2}{table.3}}}
\@writefile{brf}{\backcite{Kallio2011}{{22}{3.2}{table.3}}}
\@writefile{brf}{\backcite{Klimmt2006}{{22}{3.2}{table.3}}}
\@writefile{brf}{\backcite{Gandasegui2010}{{22}{3.2}{table.3}}}
\@writefile{brf}{\backcite{Holmes2017}{{22}{3.2}{table.3}}}
\@writefile{brf}{\backcite{Lazzaro2004}{{22}{3.2}{table.3}}}
\@writefile{brf}{\backcite{Holmes2017}{{22}{3.2}{table.3}}}
\@writefile{brf}{\backcite{Lovato2015}{{22}{3.2}{table.3}}}
\@writefile{brf}{\backcite{Carmichael2011}{{22}{3.2}{table.3}}}
\@writefile{brf}{\backcite{Juul2010}{{22}{3.2}{table.3}}}
\@writefile{brf}{\backcite{Kallio2011}{{22}{3.2}{table.3}}}
\@writefile{brf}{\backcite{Cheese2011}{{22}{3.2}{table.3}}}
\citation{Iyengar2000}
\citation{Chernev2014}
\citation{Mick2004}
\citation{Scheibehenne2008}
\citation{Gebauer2017}
\citation{jung1967}
\citation{Merriam-Webster2017c}
\citation{Maslow1943}
\citation{Ryan2006}
\citation{Deci2000}
\citation{Kaye2012}
\citation{Leversen2012}
\@writefile{brf}{\backcite{Iyengar2000}{{23}{3.2}{table.3}}}
\@writefile{brf}{\backcite{Chernev2014}{{23}{3.2}{table.3}}}
\@writefile{brf}{\backcite{Mick2004}{{23}{3.2}{table.3}}}
\@writefile{brf}{\backcite{Scheibehenne2008}{{23}{3.2}{table.3}}}
\@writefile{brf}{\backcite{Gebauer2017}{{23}{3.2}{table.3}}}
\@writefile{toc}{\contentsline {subsection}{\numberline {3.3}Motives and Barriers: The Effects}{23}{subsection.3.3}}
\@writefile{toc}{\contentsline {subsubsection}{\numberline {3.3.1}Extrovertive motives and their direct effects on Video Game Use}{23}{subsubsection.3.3.1}}
\@writefile{brf}{\backcite{jung1967}{{23}{3.3.1}{subsubsection.3.3.1}}}
\@writefile{brf}{\backcite{Merriam-Webster2017c}{{23}{3.3.1}{subsubsection.3.3.1}}}
\@writefile{brf}{\backcite{Maslow1943}{{23}{3.3.1}{subsubsection.3.3.1}}}
\@writefile{brf}{\backcite{Ryan2006}{{23}{3.3.1}{subsubsection.3.3.1}}}
\@writefile{brf}{\backcite{Deci2000}{{23}{3.3.1}{subsubsection.3.3.1}}}
\@writefile{brf}{\backcite{Kaye2012}{{23}{3.3.1}{subsubsection.3.3.1}}}
\@writefile{lot}{\contentsline {table}{\numberline {4}{\ignorespaces Literature synthesis of barriers for video game use}}{24}{table.4}}
\newlabel{tab:synthesis_barriers}{{4}{24}{Literature synthesis of barriers for video game use}{table.4}{}}
\citation{McClelland1987}
\citation{MerriamWebster2017d}
\citation{Zillmann1988}
\citation{Lazzaro2004}
\@writefile{brf}{\backcite{Leversen2012}{{25}{3.3.1}{subsubsection.3.3.1}}}
\@writefile{brf}{\backcite{McClelland1987}{{25}{3.3.1}{subsubsection.3.3.1}}}
\@writefile{toc}{\contentsline {subsubsection}{\numberline {3.3.2}Introvertive motives and their direct effects on Video Game Use}{25}{subsubsection.3.3.2}}
\@writefile{brf}{\backcite{MerriamWebster2017d}{{25}{3.3.2}{subsubsection.3.3.2}}}
\@writefile{brf}{\backcite{Zillmann1988}{{25}{3.3.2}{subsubsection.3.3.2}}}
\@writefile{brf}{\backcite{Lazzaro2004}{{25}{3.3.2}{subsubsection.3.3.2}}}
\citation{Cheyne2006}
\citation{Koerth-Baker2016}
\citation{Murray1999}
\citation{McClelland1987}
\citation{Lazzaro2004}
\citation{Maslow1943}
\citation{Stewart2011}
\citation{Farmer1976}
\citation{Ziebland1998}
\citation{MerriamWebster2017e}
\citation{jung1967}
\citation{Rogers1959}
\@writefile{brf}{\backcite{Cheyne2006}{{26}{3.3.2}{subsubsection.3.3.2}}}
\@writefile{brf}{\backcite{Koerth-Baker2016}{{26}{3.3.2}{subsubsection.3.3.2}}}
\@writefile{brf}{\backcite{Murray1999}{{26}{3.3.2}{subsubsection.3.3.2}}}
\@writefile{brf}{\backcite{McClelland1987}{{26}{3.3.2}{subsubsection.3.3.2}}}
\@writefile{brf}{\backcite{Lazzaro2004}{{26}{3.3.2}{subsubsection.3.3.2}}}
\@writefile{brf}{\backcite{Maslow1943}{{26}{3.3.2}{subsubsection.3.3.2}}}
\@writefile{brf}{\backcite{Stewart2011}{{26}{3.3.2}{subsubsection.3.3.2}}}
\citation{Kuehn2014}
\citation{Zangwill2014}
\citation{Smith2014}
\citation{Rae2017}
\@writefile{toc}{\contentsline {subsubsection}{\numberline {3.3.3}Internal Barriers and their direct effects on Video Game Use}{27}{subsubsection.3.3.3}}
\@writefile{brf}{\backcite{Farmer1976}{{27}{3.3.3}{subsubsection.3.3.3}}}
\@writefile{brf}{\backcite{Ziebland1998}{{27}{3.3.3}{subsubsection.3.3.3}}}
\@writefile{brf}{\backcite{MerriamWebster2017e}{{27}{3.3.3}{subsubsection.3.3.3}}}
\@writefile{brf}{\backcite{jung1967}{{27}{3.3.3}{subsubsection.3.3.3}}}
\@writefile{brf}{\backcite{Rogers1959}{{27}{3.3.3}{subsubsection.3.3.3}}}
\@writefile{brf}{\backcite{Kuehn2014}{{27}{3.3.3}{subsubsection.3.3.3}}}
\@writefile{brf}{\backcite{Zangwill2014}{{27}{3.3.3}{subsubsection.3.3.3}}}
\@writefile{brf}{\backcite{Smith2014, Rae2017}{{27}{3.3.3}{subsubsection.3.3.3}}}
\citation{MerriamWebster2017f}
\citation{Farmer1976}
\citation{Ziebland1998}
\citation{Scheibehenne2008}
\citation{Gorsuch2003}
\@writefile{toc}{\contentsline {subsubsection}{\numberline {3.3.4}External Barriers and their direct effects on Video Game Use}{28}{subsubsection.3.3.4}}
\@writefile{brf}{\backcite{MerriamWebster2017f}{{28}{3.3.4}{subsubsection.3.3.4}}}
\@writefile{brf}{\backcite{Farmer1976, Ziebland1998}{{28}{3.3.4}{subsubsection.3.3.4}}}
\@writefile{brf}{\backcite{Scheibehenne2008}{{28}{3.3.4}{subsubsection.3.3.4}}}
\citation{likert1932}
\@writefile{toc}{\contentsline {subsubsection}{\numberline {3.3.5}Factorizing Motives and Barriers}{29}{subsubsection.3.3.5}}
\@writefile{brf}{\backcite{Gorsuch2003}{{29}{3.3.5}{subsubsection.3.3.5}}}
\@writefile{lof}{\contentsline {figure}{\numberline {2}{\ignorespaces Model 2 - Factorized motives and barriers for video games use}}{29}{figure.2}}
\newlabel{fig:conceptual_model_clustered}{{2}{29}{Model 2 - Factorized motives and barriers for video games use}{figure.2}{}}
\@writefile{toc}{\contentsline {section}{\numberline {4}Model Validation}{29}{section.4}}
\newlabel{subsec:methodoloy}{{4.1}{29}{Research Methodology}{subsection.4.1}{}}
\@writefile{toc}{\contentsline {subsection}{\numberline {4.1}Research Methodology}{29}{subsection.4.1}}
\@writefile{toc}{\contentsline {subsubsection}{\numberline {4.1.1}Measuring the Dependent Variable}{29}{subsubsection.4.1.1}}
\@writefile{brf}{\backcite{likert1932}{{29}{4.1.1}{subsubsection.4.1.1}}}
\citation{Song2013}
\citation{Song2013}
\citation{rosenthal1991meta}
\citation{likert1932}
\citation{bowling2014}
\citation{marton1986}
\citation{Babakus1992}
\citation{Krosnick2014}
\@writefile{brf}{\backcite{Song2013}{{30}{4.1.1}{subsubsection.4.1.1}}}
\@writefile{lot}{\contentsline {table}{\numberline {5}{\ignorespaces Video Games Usage Scale - Items }}{30}{table.5}}
\newlabel{tab:items_usage}{{5}{30}{Video Games Usage Scale - Items}{table.5}{}}
\@writefile{brf}{\backcite{Song2013}{{30}{4.1.1}{table.5}}}
\@writefile{brf}{\backcite{rosenthal1991meta}{{30}{4.1.1}{table.5}}}
\@writefile{toc}{\contentsline {subsubsection}{\numberline {4.1.2}Measuring the Independent Variables}{30}{subsubsection.4.1.2}}
\@writefile{brf}{\backcite{likert1932}{{30}{4.1.2}{subsubsection.4.1.2}}}
\@writefile{brf}{\backcite{bowling2014}{{30}{4.1.2}{subsubsection.4.1.2}}}
\@writefile{brf}{\backcite{marton1986}{{30}{4.1.2}{subsubsection.4.1.2}}}
\@writefile{brf}{\backcite{Babakus1992}{{30}{4.1.2}{subsubsection.4.1.2}}}
\@writefile{brf}{\backcite{Krosnick2014}{{30}{4.1.2}{subsubsection.4.1.2}}}
\citation{Wiebe2014}
\@writefile{brf}{\backcite{Wiebe2014}{{31}{4.1.2}{subsubsection.4.1.2}}}
\gdef \LT@iii {\LT@entry 
    {1}{68.9055pt}\LT@entry 
    {1}{40.45274pt}\LT@entry 
    {1}{40.45274pt}\LT@entry 
    {1}{282.30118pt}}
\citation{Gebauer2017}
\newlabel{tab:iv_scales}{{6}{32}{Measuring the Independent Variables}{table.6}{}}
\@writefile{lot}{\contentsline {table}{\numberline {6}{Measuring IVs - Scales and items }}{32}{table.6}}
\newlabel{subsec:sample}{{4.2}{32}{Sample Description}{subsection.4.2}{}}
\@writefile{toc}{\contentsline {subsection}{\numberline {4.2}Sample Description}{32}{subsection.4.2}}
\@writefile{brf}{\backcite{Gebauer2017}{{32}{4.2}{subsection.4.2}}}
\citation{ESA2017}
\citation{isfe2017}
\citation{destatis2016}
\citation{Statista2015a}
\citation{Statista2015b}
\citation{Adams2002}
\citation{Juul2010}
\citation{Kultima2009}
\citation{Hamari2014}
\citation{Juul2010}
\@writefile{brf}{\backcite{ESA2017}{{33}{4.2}{subsection.4.2}}}
\@writefile{brf}{\backcite{isfe2017}{{33}{4.2}{subsection.4.2}}}
\@writefile{brf}{\backcite{destatis2016}{{33}{4.2}{subsection.4.2}}}
\@writefile{brf}{\backcite{Statista2015a, Statista2015b}{{33}{4.2}{subsection.4.2}}}
\@writefile{lof}{\contentsline {figure}{\numberline {3}{\ignorespaces Sample Description - Education }}{33}{figure.3}}
\newlabel{fig:education}{{3}{33}{Sample Description - Education}{figure.3}{}}
\@writefile{brf}{\backcite{Adams2002}{{33}{4.2}{figure.4}}}
\@writefile{brf}{\backcite{Juul2010}{{33}{4.2}{figure.4}}}
\@writefile{brf}{\backcite{Kultima2009}{{33}{4.2}{figure.4}}}
\@writefile{brf}{\backcite{Hamari2014}{{33}{4.2}{figure.4}}}
\@writefile{brf}{\backcite{Juul2010}{{33}{4.2}{figure.4}}}
\citation{Cronbach1951}
\citation{Adams2002}
\citation{Horn1965}
\@writefile{lof}{\contentsline {figure}{\numberline {4}{\ignorespaces Sample Description - Self-assessed Gamer Types }}{34}{figure.4}}
\newlabel{fig:selfassessment_gamertype}{{4}{34}{Sample Description - Self-assessed Gamer Types}{figure.4}{}}
\@writefile{brf}{\backcite{Cronbach1951}{{34}{4.2}{equation.4.4}}}
\@writefile{lot}{\contentsline {table}{\numberline {7}{\ignorespaces The coreness construct - Weighting of the components }}{34}{table.7}}
\newlabel{tab:coreness_weighting}{{7}{34}{The coreness construct - Weighting of the components}{table.7}{}}
\@writefile{brf}{\backcite{Adams2002}{{34}{4.2}{table.7}}}
\@writefile{brf}{\backcite{Horn1965}{{34}{4.2}{table.7}}}
\@writefile{lot}{\contentsline {table}{\numberline {8}{\ignorespaces The coreness construct - Items }}{35}{table.8}}
\newlabel{tab:items_coreness}{{8}{35}{The coreness construct - Items}{table.8}{}}
\citation{Statista2017b}
\citation{Cronbach1951}
\citation{nunnally1967}
\citation{Streiner2003}
\@writefile{lof}{\contentsline {figure}{\numberline {5}{\ignorespaces Sample Description - Self-assessment Tendencies }}{36}{figure.5}}
\newlabel{fig:selfassessment_tendency}{{5}{36}{Sample Description - Self-assessment Tendencies}{figure.5}{}}
\@writefile{brf}{\backcite{Statista2017b}{{36}{4.2}{figure.5}}}
\@writefile{lof}{\contentsline {figure}{\numberline {6}{\ignorespaces Sample Description - Gaming Frequency }}{36}{figure.6}}
\newlabel{fig:frequency}{{6}{36}{Sample Description - Gaming Frequency}{figure.6}{}}
\newlabel{subsec:results}{{4.3}{36}{Results}{subsection.4.3}{}}
\@writefile{toc}{\contentsline {subsection}{\numberline {4.3}Results}{36}{subsection.4.3}}
\@writefile{toc}{\contentsline {subsubsection}{\numberline {4.3.1}Reliability and Unidimensionality of Scales}{36}{subsubsection.4.3.1}}
\@writefile{brf}{\backcite{Cronbach1951}{{36}{4.3.1}{subsubsection.4.3.1}}}
\@writefile{brf}{\backcite{nunnally1967}{{36}{4.3.1}{subsubsection.4.3.1}}}
\@writefile{brf}{\backcite{Streiner2003}{{36}{4.3.1}{subsubsection.4.3.1}}}
\citation{nunnally1967}
\citation{Streiner2003}
\citation{kaiser1970}
\citation{kaiser1974}
\citation{kaiser1970}
\citation{kaiser1974}
\@writefile{brf}{\backcite{nunnally1967, Streiner2003}{{37}{4.3.1}{subsubsection.4.3.1}}}
\@writefile{brf}{\backcite{kaiser1970, kaiser1974}{{37}{4.3.1}{subsubsection.4.3.1}}}
\@writefile{brf}{\backcite{kaiser1970, kaiser1974}{{37}{4.3.1}{subsubsection.4.3.1}}}
\@writefile{lot}{\contentsline {table}{\numberline {9}{\ignorespaces Princpical Components Analysis results - Undidemsionality }}{37}{table.9}}
\newlabel{tab:unidimensionality}{{9}{37}{Princpical Components Analysis results - Undidemsionality}{table.9}{}}
\citation{hair1998}
\citation{bowerman1990}
\citation{rogerson2001}
\citation{gujarati2009}
\citation{durbinwatson1951}
\@writefile{toc}{\contentsline {subsubsection}{\numberline {4.3.2}Testing of the Conceptual Model and its Hypotheses}{38}{subsubsection.4.3.2}}
\@writefile{brf}{\backcite{hair1998, bowerman1990}{{38}{4.3.2}{table.10}}}
\@writefile{brf}{\backcite{rogerson2001}{{38}{4.3.2}{table.10}}}
\@writefile{brf}{\backcite{gujarati2009}{{38}{4.3.2}{table.10}}}
\@writefile{brf}{\backcite{durbinwatson1951}{{38}{4.3.2}{table.10}}}
\@writefile{lot}{\contentsline {table}{\numberline {10}{\ignorespaces Model 1 - Multiple Linear Regression Results}}{39}{table.10}}
\newlabel{tab:regression_constructs}{{10}{39}{Model 1 - Multiple Linear Regression Results}{table.10}{}}
\citation{kaiser1970}
\citation{kaiser1974}
\citation{hutcheson1999}
\citation{Horn1965}
\citation{Oconnor2000}
\citation{Franklin1995}
\citation{McClelland1987}
\@writefile{lot}{\contentsline {table}{\numberline {11}{\ignorespaces Model 1 - Hypotheses Overview }}{41}{table.11}}
\newlabel{tab:hypotheses_support}{{11}{41}{Model 1 - Hypotheses Overview}{table.11}{}}
\@writefile{toc}{\contentsline {subsubsection}{\numberline {4.3.3}Testing the Factorized Model}{41}{subsubsection.4.3.3}}
\@writefile{brf}{\backcite{kaiser1970, kaiser1974}{{41}{4.3.3}{subsubsection.4.3.3}}}
\@writefile{brf}{\backcite{hutcheson1999}{{41}{4.3.3}{subsubsection.4.3.3}}}
\@writefile{brf}{\backcite{Horn1965}{{41}{4.3.3}{subsubsection.4.3.3}}}
\@writefile{brf}{\backcite{Oconnor2000}{{41}{4.3.3}{subsubsection.4.3.3}}}
\@writefile{brf}{\backcite{Franklin1995}{{41}{4.3.3}{subsubsection.4.3.3}}}
\@writefile{brf}{\backcite{McClelland1987}{{41}{4.3.3}{table.13}}}
\citation{DiStefano2009}
\citation{hair1998}
\citation{bowerman1990}
\citation{rogerson2001}
\citation{gujarati2009}
\citation{durbinwatson1951}
\@writefile{lot}{\contentsline {table}{\numberline {12}{\ignorespaces Parallel Analysis }}{42}{table.12}}
\newlabel{tab:parallel}{{12}{42}{Parallel Analysis}{table.12}{}}
\@writefile{brf}{\backcite{DiStefano2009}{{42}{4.3.3}{table.14}}}
\@writefile{brf}{\backcite{hair1998, bowerman1990, rogerson2001}{{42}{4.3.3}{table.15}}}
\@writefile{brf}{\backcite{gujarati2009}{{42}{4.3.3}{table.15}}}
\@writefile{brf}{\backcite{durbinwatson1951}{{42}{4.3.3}{table.15}}}
\@writefile{lot}{\contentsline {table}{\numberline {13}{\ignorespaces Exploratory Factor Analysis - Rotated Component Matrix}}{43}{table.13}}
\newlabel{tab:rotated_components}{{13}{43}{Exploratory Factor Analysis - Rotated Component Matrix}{table.13}{}}
\@writefile{lot}{\contentsline {table}{\numberline {14}{\ignorespaces Exploratory Factor Analysis - Components}}{43}{table.14}}
\newlabel{tab:components}{{14}{43}{Exploratory Factor Analysis - Components}{table.14}{}}
\citation{Scharkow2015}
\citation{IGDA2006}
\citation{InternationalGameDevelopersAssociation2009}
\citation{Kultima2009}
\citation{Trefry2010}
\citation{Juul2010}
\@writefile{lot}{\contentsline {table}{\numberline {15}{\ignorespaces Model 2 - Multiple Linear Regression Results}}{44}{table.15}}
\newlabel{tab:regression_factors}{{15}{44}{Model 2 - Multiple Linear Regression Results}{table.15}{}}
\@writefile{toc}{\contentsline {subsubsection}{\numberline {4.3.4}Post-hoc analysis - Gamer type as moderator?}{44}{subsubsection.4.3.4}}
\@writefile{brf}{\backcite{Scharkow2015}{{44}{4.3.4}{subsubsection.4.3.4}}}
\@writefile{brf}{\backcite{IGDA2006, InternationalGameDevelopersAssociation2009, Kultima2009, Trefry2010, Juul2010}{{44}{4.3.4}{subsubsection.4.3.4}}}
\@writefile{lof}{\contentsline {figure}{\numberline {7}{\ignorespaces Model 3 - Motives and barriers for video games use with moderator variable}}{45}{figure.7}}
\newlabel{fig:conceptual_model_moderator}{{7}{45}{Model 3 - Motives and barriers for video games use with moderator variable}{figure.7}{}}
\@writefile{lot}{\contentsline {table}{\numberline {16}{\ignorespaces Model 3 - Multiple Linear Regression Results}}{45}{table.16}}
\newlabel{tab:regression_factors_interactions}{{16}{45}{Model 3 - Multiple Linear Regression Results}{table.16}{}}
\citation{Selwyn2007}
\citation{Yee2008}
\citation{Williams2009}
\citation{Juul2010}
\@writefile{toc}{\contentsline {section}{\numberline {5}Conclusion}{46}{section.5}}
\@writefile{toc}{\contentsline {subsection}{\numberline {5.1}Discussion of Results}{46}{subsection.5.1}}
\citation{Lane1999}
\citation{Adams2002}
\citation{Juul2010}
\citation{Hilgard2013}
\citation{Williams2002}
\citation{Adams2002}
\citation{Hilgard2013}
\citation{Hilgard2013}
\citation{Juul2010}
\citation{Adams2002}
\citation{Engel1973}
\citation{Scheibehenne2008}
\citation{Kelly2014}
\citation{Levy2014}
\citation{Bishop2015}
\@writefile{brf}{\backcite{Selwyn2007}{{47}{5.1}{subsection.5.1}}}
\@writefile{brf}{\backcite{Yee2008, Williams2009, Juul2010}{{47}{5.1}{subsection.5.1}}}
\@writefile{brf}{\backcite{Lane1999, Adams2002, Juul2010, Hilgard2013}{{47}{5.1}{subsection.5.1}}}
\@writefile{brf}{\backcite{Williams2002, Adams2002, Hilgard2013}{{47}{5.1}{subsection.5.1}}}
\@writefile{brf}{\backcite{Hilgard2013}{{47}{5.1}{subsection.5.1}}}
\@writefile{brf}{\backcite{Juul2010}{{47}{5.1}{subsection.5.1}}}
\@writefile{brf}{\backcite{Adams2002}{{47}{5.1}{subsection.5.1}}}
\citation{Engel1973}
\citation{Engel1973}
\citation{MarchandHTW2016}
\citation{MarchandHTW2017}
\citation{Bartschat2017}
\citation{narayana1975}
\citation{Engel1973}
\citation{McClelland1987}
\@writefile{brf}{\backcite{Engel1973}{{48}{5.1}{subsection.5.1}}}
\@writefile{brf}{\backcite{Scheibehenne2008}{{48}{5.1}{subsection.5.1}}}
\@writefile{brf}{\backcite{Kelly2014, Levy2014, Bishop2015}{{48}{5.1}{subsection.5.1}}}
\@writefile{brf}{\backcite{Engel1973}{{48}{5.1}{subsection.5.1}}}
\@writefile{brf}{\backcite{Engel1973}{{48}{5.1}{subsection.5.1}}}
\@writefile{brf}{\backcite{MarchandHTW2016, MarchandHTW2017, Bartschat2017}{{48}{5.1}{subsection.5.1}}}
\@writefile{brf}{\backcite{narayana1975}{{48}{5.1}{subsection.5.1}}}
\@writefile{brf}{\backcite{Engel1973}{{48}{5.1}{subsection.5.1}}}
\@writefile{brf}{\backcite{McClelland1987}{{48}{5.1}{subsection.5.1}}}
\citation{worcester1975}
\citation{Baggett2008}
\citation{SteamSpy2017}
\@writefile{brf}{\backcite{worcester1975}{{49}{5.1}{subsection.5.1}}}
\@writefile{brf}{\backcite{Baggett2008}{{49}{5.1}{subsection.5.1}}}
\@writefile{brf}{\backcite{SteamSpy2017}{{49}{5.1}{subsection.5.1}}}
\citation{Lucas2004}
\citation{Lucas2004}
\citation{Kiesler1985}
\citation{Greenberg2010}
\citation{ESA2017}
\citation{isfe2017}
\citation{Liebl2014}
\citation{ESA2017}
\citation{Jayanth2014}
\@writefile{brf}{\backcite{Lucas2004}{{50}{5.1}{subsection.5.1}}}
\@writefile{brf}{\backcite{Lucas2004}{{50}{5.1}{subsection.5.1}}}
\@writefile{brf}{\backcite{Kiesler1985}{{50}{5.1}{subsection.5.1}}}
\@writefile{brf}{\backcite{Greenberg2010}{{50}{5.1}{subsection.5.1}}}
\@writefile{brf}{\backcite{ESA2017}{{50}{5.1}{subsection.5.1}}}
\@writefile{brf}{\backcite{isfe2017}{{50}{5.1}{subsection.5.1}}}
\@writefile{brf}{\backcite{Liebl2014}{{50}{5.1}{subsection.5.1}}}
\@writefile{brf}{\backcite{ESA2017}{{50}{5.1}{subsection.5.1}}}
\@writefile{brf}{\backcite{Jayanth2014}{{50}{5.1}{subsection.5.1}}}
\citation{Juul2010}
\citation{Juul2010}
\@writefile{lot}{\contentsline {table}{\numberline {17}{\ignorespaces Model comparison }}{51}{table.17}}
\newlabel{tab:model_comparison}{{17}{51}{Model comparison}{table.17}{}}
\@writefile{toc}{\contentsline {subsection}{\numberline {5.2}Implications}{51}{subsection.5.2}}
\@writefile{brf}{\backcite{Juul2010}{{51}{5.2}{subsection.5.2}}}
\citation{Kultima2009}
\citation{Kultima2009}
\citation{Juul2010}
\citation{Weibel2011}
\citation{Klimmt2006}
\citation{Ryan2006}
\citation{Przybylski2010}
\citation{Ryan2000}
\citation{Deci2000}
\citation{Lazzaro2004}
\citation{Klimmt2006}
\citation{Boyle2012}
\citation{Ferguson2014}
\citation{Vaughn2015}
\citation{Lazzaro2004}
\citation{Kuittinen2007}
\citation{Reinecke2009}
\citation{Boyle2012}
\citation{Lazzaro2004}
\citation{Stewart2011}
\citation{Zeigler-Hill2015}
\citation{Boyle2012}
\citation{Ferguson2014}
\citation{Vaughn2015}
\citation{Cheyne2006}
\citation{Juul2010}
\citation{Emilio2009}
\citation{Hennig-Thurau2013}
\citation{Sifa2015}
\citation{Sifa2015}
\citation{Supercell2017}
\citation{Forsell2017}
\@writefile{brf}{\backcite{Juul2010}{{52}{5.2}{subsection.5.2}}}
\@writefile{brf}{\backcite{Kultima2009}{{52}{5.2}{subsection.5.2}}}
\@writefile{brf}{\backcite{Kultima2009, Juul2010}{{52}{5.2}{subsection.5.2}}}
\@writefile{brf}{\backcite{Weibel2011}{{52}{5.2}{subsection.5.2}}}
\@writefile{brf}{\backcite{Klimmt2006}{{52}{5.2}{subsection.5.2}}}
\@writefile{brf}{\backcite{Ryan2006, Przybylski2010}{{52}{5.2}{subsection.5.2}}}
\@writefile{brf}{\backcite{Ryan2000, Deci2000}{{52}{5.2}{subsection.5.2}}}
\@writefile{brf}{\backcite{Lazzaro2004}{{52}{5.2}{subsection.5.2}}}
\@writefile{brf}{\backcite{Klimmt2006}{{52}{5.2}{subsection.5.2}}}
\@writefile{brf}{\backcite{Boyle2012, Ferguson2014, Vaughn2015}{{52}{5.2}{subsection.5.2}}}
\@writefile{brf}{\backcite{Lazzaro2004, Kuittinen2007, Reinecke2009, Boyle2012}{{53}{5.2}{subsection.5.2}}}
\@writefile{brf}{\backcite{Lazzaro2004, Stewart2011, Zeigler-Hill2015}{{53}{5.2}{subsection.5.2}}}
\@writefile{brf}{\backcite{Boyle2012, Ferguson2014, Vaughn2015}{{53}{5.2}{subsection.5.2}}}
\@writefile{brf}{\backcite{Cheyne2006, Juul2010}{{53}{5.2}{subsection.5.2}}}
\@writefile{brf}{\backcite{Emilio2009, Hennig-Thurau2013}{{53}{5.2}{subsection.5.2}}}
\@writefile{brf}{\backcite{Sifa2015}{{53}{5.2}{subsection.5.2}}}
\@writefile{brf}{\backcite{Sifa2015}{{53}{5.2}{subsection.5.2}}}
\@writefile{brf}{\backcite{Supercell2017}{{53}{5.2}{subsection.5.2}}}
\@writefile{brf}{\backcite{Forsell2017}{{53}{5.2}{subsection.5.2}}}
\@writefile{toc}{\contentsline {subsection}{\numberline {5.3}Limitations and Future Research}{53}{subsection.5.3}}
\citation{Klimmt2006}
\citation{Stewart2011}
\citation{Graham2013}
\citation{Zeigler-Hill2015}
\citation{Braun2016a}
\citation{Baumann2016}
\citation{Grifftiths2015}
\citation{perks2016}
\citation{Ore2017}
\citation{Hood2017}
\citation{Handrahan2016}
\@writefile{brf}{\backcite{Klimmt2006}{{54}{5.3}{subsection.5.3}}}
\@writefile{brf}{\backcite{Stewart2011}{{54}{5.3}{subsection.5.3}}}
\@writefile{brf}{\backcite{Graham2013}{{54}{5.3}{subsection.5.3}}}
\@writefile{brf}{\backcite{Zeigler-Hill2015}{{54}{5.3}{subsection.5.3}}}
\@writefile{brf}{\backcite{Braun2016a}{{54}{5.3}{subsection.5.3}}}
\@writefile{brf}{\backcite{Baumann2016}{{54}{5.3}{subsection.5.3}}}
\@writefile{brf}{\backcite{Grifftiths2015, perks2016, Ore2017, Hood2017}{{54}{5.3}{subsection.5.3}}}
\@writefile{brf}{\backcite{Handrahan2016}{{54}{5.3}{subsection.5.3}}}
\bibstyle{apalike-url}
\bibdata{library}
\bibcite{Adams2002}{Adams, 2002}
\bibcite{Anderson2001}{Anderson and Bushman, 2001}
\bibcite{Babakus1992}{Babakus and Mangold, 1992}
\bibcite{BadMouth2012}{BadMouth, 2012}
\bibcite{Baggett2008}{Baggett et~al., 2008}
\bibcite{Bandura1977}{Bandura, 1977}
\bibcite{bandura1997}{Bandura, 1997}
\bibcite{Bartle1996}{Bartle, 1996}
\bibcite{Bartschat2017}{Bartschat, 2017}
\bibcite{Bateman2011}{Bateman et~al., 2011}
\bibcite{Baumann2016}{Baumann et~al., 2016}
\bibcite{Billieux2013}{Billieux et~al., 2013}
\bibcite{Bishop2015}{Bishop, 2015}
\bibcite{bowerman1990}{Bowerman and O'Connell, 1990}
\bibcite{bowling2014}{Bowling, 2014}
\bibcite{BoxOfficeMojo2017}{{Box Office Mojo}, 2017}
\bibcite{Boyle2012}{Boyle et~al., 2012}
\bibcite{Braun2016a}{Braun et~al., 2016}
\bibcite{budd_aesthetics_1998}{Budd, 1998}
\bibcite{caillois1961}{Caillois, 1961}
\bibcite{Carmichael2011}{Carmichael, 2011}
\bibcite{Cheese2011}{Cheese and Wong, 2011}
\bibcite{Chernev2014}{Chernev et~al., 2014}
\bibcite{Cheyne2006}{Cheyne et~al., 2006}
\bibcite{Clements2005}{Clements and Ohashi, 2005}
\bibcite{Cole1994}{Cole et~al., 1994}
\bibcite{Cronbach1951}{Cronbach, 1951}
\bibcite{decharms1968}{DeCharms, 1968}
\bibcite{Deci2000}{Deci and Ryan, 2000}
\bibcite{Deci2008}{Deci and Ryan, 2008}
\bibcite{Baard2004}{Deci et~al., 2004}
\bibcite{DiStefano2009}{DiStefano et~al., 2009}
\bibcite{DMA573612011}{DMA57361, 2011}
\bibcite{durbinwatson1951}{Durbin and Watson, 1951}
\bibcite{Economides1992}{Economides and Salop, 1992}
\bibcite{Emilio2009}{Emilio and Gayo, 2009}
\bibcite{Engel1973}{Engel et~al., 1973}
\bibcite{ESA2017}{EntertainmentSoftwareAssociation, 2017}
\bibcite{Ernkvist2008}{Ernkvist, 2008}
\bibcite{Farmer1976}{Farmer, 1976}
\bibcite{Ferguson2007}{Ferguson, 2007}
\bibcite{Ferguson2014}{Ferguson et~al., 2014}
\bibcite{Forsell2017}{Forsell and Rosendahl, 2017}
\bibcite{Franklin1995}{Franklin et~al., 1995}
\bibcite{Freitas2006}{Freitas, 2006}
\bibcite{SteamSpy2017}{Galyonkin, 2017}
\bibcite{Gandasegui2010}{Gandasegui, 2010}
\bibcite{Gebauer2017}{Gebauer et~al., 2017}
\bibcite{Gert2016}{Gert and Gert, 2016}
\bibcite{Goldfarb2013}{Goldfarb, 2013}
\bibcite{Gorsuch2003}{Gorsuch, 2003}
\bibcite{Graham2013}{Graham and Gosling, 2013}
\bibcite{Greenberg2010}{Greenberg et~al., 2010}
\bibcite{Griffiths1999}{Griffiths, 1999}
\bibcite{Grifftiths2015}{Grifftiths and King, 2015}
\bibcite{gujarati2009}{Gujarati, 2009}
\bibcite{hair1998}{Hair et~al., 1998}
\bibcite{Hamari2014}{Hamari and Tuunanen, 2014}
\bibcite{Handrahan2016}{Handrahan, 2016}
\bibcite{Hennig-Thurau2013}{Hennig-Thurau and Marchand, 2013}
\bibcite{MarchandHTW2016}{Hennig-Thurau et~al., 2016}
\bibcite{MarchandHTW2017}{Hennig-Thurau et~al., 2017}
\bibcite{Hennion2007}{Hennion, 2007}
\bibcite{Henry2014}{Henry et~al., 2014}
\bibcite{Hilgard2013}{Hilgard et~al., 2013}
\bibcite{hipsterwhale2017}{HipsterWhale, 2017}
\bibcite{Holmes2017}{Holmes, 2017}
\bibcite{Homburg2005}{Homburg et~al., 2005}
\bibcite{Hood2017}{Hood, 2017}
\bibcite{Horn1965}{Horn, 1965}
\bibcite{hutcheson1999}{Hutcheson and Sofroniou, 1999}
\bibcite{IGDA2006}{IGDA, 2006}
\bibcite{InternationalGameDevelopersAssociation2009}{IGDA, 2009}
\bibcite{isfe2017}{ISFE, 2017}
\bibcite{Iyengar2000}{Iyengar and Lepper, 2000}
\bibcite{Johnston2013}{Johnston, 2013}
\bibcite{jung1967}{Jung, 1967}
\bibcite{Juul2010}{Juul, 2010}
\bibcite{Kahn2015}{Kahn et~al., 2015}
\bibcite{kaiser1970}{Kaiser, 1970}
\bibcite{kaiser1974}{Kaiser and Rice, 1974}
\bibcite{Kallio2011}{Kallio et~al., 2011}
\bibcite{Kaminsky2016}{Kaminsky, 2016}
\bibcite{Katz1959}{Katz, 1959}
\bibcite{Katz1973}{Katz et~al., 1973}
\bibcite{Katz1985}{Katz and Shapiro, 1985}
\bibcite{Kaye2012}{Kaye and Bryce, 2012}
\bibcite{keirsey1984}{Keirsey and Bates, 1984}
\bibcite{Kelly2014}{Kelly, 2014}
\bibcite{kent2010ultimate}{Kent, 2010}
\bibcite{Kiesler1985}{Kiesler et~al., 1985}
\bibcite{Kiili2005}{Kiili, 2005}
\bibcite{Klimmt2006}{Klimmt and Hartmann, 2006}
\bibcite{Koerth-Baker2016}{Koerth-Baker, 2016}
\bibcite{Krosnick2014}{Krosnick et~al., 2014}
\bibcite{Kuehn2014}{K{\"{u}}hn et~al., 2014}
\bibcite{Kuittinen2007}{Kuittinen et~al., 2007}
\bibcite{Kultima2009}{Kultima, 2009}
\bibcite{Landsman2011}{Landsman and Stremersch, 2011}
\bibcite{Lane1999}{Lane et~al., 1999}
\bibcite{Langshaw2014}{Langshaw, 2014}
\bibcite{Lazzaro2004}{Lazzaro, 2004}
\bibcite{Leack2017}{Leack, 2017}
\bibcite{Leigh2011}{Leigh, 2011}
\bibcite{Leversen2012}{Leversen et~al., 2012}
\bibcite{Levy2014}{Levy, 2014}
\bibcite{Liebl2014}{Liebl, 2014}
\bibcite{likert1932}{Likert, 1932}
\bibcite{Linke2014}{Linke, 2014}
\bibcite{Lovato2015}{Lovato, 2015}
\bibcite{Lucas2004}{Lucas and Sherry, 2004}
\bibcite{MacLeod2016}{MacLeod, 2016}
\bibcite{Marchand2016}{Marchand, 2016}
\bibcite{marton1986}{Marton-Williams, 1986}
\bibcite{Maslow1943}{Maslow, 1943}
\bibcite{McClelland1987}{McClelland, 1987}
\bibcite{Team2017}{McDonald, 2017}
\bibcite{Merriam-Webster1995}{Merriam-Webster, 1995}
\bibcite{MerriamWebsterBarrier2017}{Merriam-Webster, 2017a}
\bibcite{Merriam-Webster2017}{Merriam-Webster, 2017b}
\bibcite{MerriamWebster2017e}{Merriam-Webster, 2017c}
\bibcite{Merriam-Webster2017c}{Merriam-Webster, 2017d}
\bibcite{MerriamWebster2017d}{Merriam-Webster, 2017e}
\bibcite{MerriamWebster2017f}{Merriam-Webster, 2017f}
\bibcite{Mick2004}{Mick et~al., 2004}
\bibcite{Murray1999}{Murray, 1999}
\bibcite{Nacke2014}{Nacke et~al., 2014}
\bibcite{narayana1975}{Narayana and Marking, 1975}
\bibcite{Nelson1970}{Nelson, 1970}
\bibcite{Iwata2011}{Nintendo, 2011}
\bibcite{nunnally1967}{Nunnally, 1967}
\bibcite{Oconnor2000}{O'Connor, 2000}
\bibcite{Oliver2016}{Oliver et~al., 2016}
\bibcite{Ore2017}{Ore, 2017}
\bibcite{Pardee1990}{Pardee, 1990}
\bibcite{perks2016}{Perks, 2016}
\bibcite{popcap2017}{PopCap, 2017}
\bibcite{Przybylski2010}{Przybylski et~al., 2010}
\bibcite{Qin2009}{Qin et~al., 2009}
\bibcite{Rae2017}{Rae, 2017}
\bibcite{Reinecke2009}{Reinecke, 2009}
\bibcite{Rochet2003}{Rochet and Industrielle, 2003}
\bibcite{Rogers1959}{Rogers, 1959}
\bibcite{rogerson2001}{Rogerson, 2001}
\bibcite{Rohlfs1974}{Rohlfs, 1974}
\bibcite{rosenthal1991meta}{Rosenthal, 1991}
\bibcite{Ruggiero2000}{Ruggiero, 2000}
\bibcite{Ryan2000}{Ryan and Deci, 2000}
\bibcite{Ryan2001}{Ryan and Deci, 2001}
\bibcite{Ryan2006}{Ryan et~al., 2006}
\bibcite{Scharkow2015}{Scharkow et~al., 2015}
\bibcite{Scheibehenne2008}{Scheibehenne, 2008}
\bibcite{Selwyn2007}{Selwyn, 2007}
\bibcite{Sherry2006}{Sherry et~al., 2006}
\bibcite{Sicart2009}{Sicart, 2009}
\bibcite{Sifa2015}{Sifa et~al., 2015}
\bibcite{Simon2017}{Simon et~al., 2017}
\bibcite{Sinclair2017}{Sinclair, 2017}
\bibcite{Smith2014}{Smith, 2014}
\bibcite{Song2013}{Song et~al., 2013}
\bibcite{Statista2015b}{Statista, 2015a}
\bibcite{Statista2015a}{Statista, 2015b}
\bibcite{Statista2016b}{Statista, 2016a}
\bibcite{Statista2016c}{Statista, 2016b}
\bibcite{Statista2017a}{Statista, 2017a}
\bibcite{Statista2017b}{Statista, 2017b}
\bibcite{destatis2016}{{Statistische {\"{A}}mter des Bundes und der L{\"{a}}nder}, 2016}
\bibcite{Lander2017}{{Statistische {\"{A}}mter des Bundes und der L{\"{a}}nder}, 2017}
\bibcite{Stewart2011}{Stewart, 2011}
\bibcite{Streiner2003}{Streiner, 2003}
\bibcite{suits2005grasshopper}{Suits and Hurka, 2005}
\bibcite{Supercell2017}{Supercell, 2017}
\bibcite{Trefry2010}{Trefry, 2010}
\bibcite{Tseng2011}{Tseng, 2011}
\bibcite{Vaughn2015}{Vaughn, 2015}
\bibcite{vhb2017}{VHB, 2017}
\bibcite{Vorderer2003}{Vorderer et~al., 2003}
\bibcite{Weibel2011}{Weibel and Wissmath, 2011}
\bibcite{White1959}{White, 1959}
\bibcite{Wiebe2014}{Wiebe et~al., 2014}
\bibcite{Williams2002}{Williams, 2002}
\bibcite{Williams2009}{Williams et~al., 2009}
\bibcite{Winter1998}{Winter et~al., 1998}
\bibcite{worcester1975}{Worcester and Burns, 1975}
\bibcite{Yee2007}{Yee, 2007}
\bibcite{Yee2011}{Yee and Ducheneaut, 2011}
\bibcite{Yee2008}{Yee et~al., 2008}
\bibcite{Zangwill2014}{Zangwill, 2014}
\bibcite{Zeigler-Hill2015}{Zeigler-Hill and Monica, 2015}
\bibcite{Ziebland1998}{Ziebland et~al., 1998}
\bibcite{Zillmann1988}{Zillmann, 1988}
\bibcite{zillmann2000}{Zillmann, 2000}
\bibcite{Zillmann1984}{Zillmann and Bryant, 1984}
\bibcite{zillmann1985}{Zillmann and Bryant, 1985}
\@writefile{toc}{\contentsline {section}{References}{71}{section*.6}}
\citation{Williams2002}
\citation{Adams2002}
\citation{Hilgard2013}
\citation{Adams2002}
\citation{Juul2010}
\citation{Bateman2011}
\citation{Iwata2011}
\citation{Bateman2011}
\citation{Adams2002}
\citation{Hilgard2013}
\citation{Lane1999}
\citation{Juul2010}
\@writefile{toc}{\contentsline {section}{Appendices}{72}{section*.7}}
\@writefile{toc}{\par }
\@writefile{toc}{\contentsline {section}{\numberline {A}The Gamer Types}{72}{Appendix.1.A}}
\newlabel{app:gamertypes}{{A}{72}{The Gamer Types}{Appendix.1.A}{}}
\@writefile{toc}{\contentsline {subsection}{\numberline {A.1}The Core Gamer}{72}{subsection.1.A.1}}
\@writefile{lof}{\contentsline {figure}{\numberline {8}{\ignorespaces Gamer Type Continuum - The Core Gamer}}{72}{figure.8}}
\newlabel{fig:gamertypecore}{{8}{72}{Gamer Type Continuum - The Core Gamer}{figure.8}{}}
\@writefile{brf}{\backcite{Williams2002}{{72}{A.1}{figure.8}}}
\@writefile{brf}{\backcite{Adams2002, Hilgard2013}{{72}{A.1}{figure.8}}}
\@writefile{brf}{\backcite{Adams2002}{{72}{A.1}{figure.8}}}
\@writefile{brf}{\backcite{Juul2010}{{72}{A.1}{figure.8}}}
\@writefile{brf}{\backcite{Bateman2011}{{72}{A.1}{figure.8}}}
\@writefile{brf}{\backcite{Iwata2011}{{72}{A.1}{figure.8}}}
\@writefile{brf}{\backcite{Bateman2011}{{72}{A.1}{figure.8}}}
\@writefile{brf}{\backcite{Adams2002}{{72}{A.1}{figure.8}}}
\@writefile{brf}{\backcite{Hilgard2013}{{72}{A.1}{figure.8}}}
\citation{Hilgard2013}
\citation{Juul2010}
\citation{Nacke2014}
\citation{Adams2002}
\citation{Iwata2011}
\citation{Bateman2011}
\citation{Juul2010}
\citation{Kultima2009}
\citation{Lane1999}
\@writefile{brf}{\backcite{Lane1999,Juul2010}{{73}{A.1}{figure.8}}}
\@writefile{toc}{\contentsline {subsection}{\numberline {A.2}The Casual Gamer}{73}{subsection.1.A.2}}
\@writefile{lof}{\contentsline {figure}{\numberline {9}{\ignorespaces Gamer Type Continuum - The Casual Gamer}}{73}{figure.9}}
\newlabel{fig:gamertypecasual}{{9}{73}{Gamer Type Continuum - The Casual Gamer}{figure.9}{}}
\@writefile{brf}{\backcite{Hilgard2013}{{73}{A.2}{figure.9}}}
\@writefile{brf}{\backcite{Juul2010}{{73}{A.2}{figure.9}}}
\@writefile{brf}{\backcite{Nacke2014}{{73}{A.2}{figure.9}}}
\@writefile{brf}{\backcite{Adams2002}{{73}{A.2}{figure.9}}}
\@writefile{brf}{\backcite{Iwata2011}{{73}{A.2}{figure.9}}}
\@writefile{brf}{\backcite{Bateman2011}{{73}{A.2}{figure.9}}}
\@writefile{brf}{\backcite{Juul2010,Kultima2009}{{73}{A.2}{figure.9}}}
\@writefile{brf}{\backcite{Lane1999}{{73}{A.2}{figure.9}}}
\newlabel{app:data}{{B}{73}{Additional Data}{Appendix.1.B}{}}
\@writefile{toc}{\contentsline {section}{\numberline {B}Additional Data}{73}{Appendix.1.B}}
\gdef \LT@iv {\LT@entry 
    {3}{35.2053pt}\LT@entry 
    {3}{44.16621pt}\LT@entry 
    {4}{34.94409pt}\LT@entry 
    {1}{35.2053pt}\LT@entry 
    {4}{34.94409pt}\LT@entry 
    {4}{34.94409pt}\LT@entry 
    {4}{34.94409pt}\LT@entry 
    {4}{34.94409pt}\LT@entry 
    {4}{34.94409pt}\LT@entry 
    {4}{34.94409pt}\LT@entry 
    {4}{34.94409pt}\LT@entry 
    {4}{34.94409pt}\LT@entry 
    {4}{34.94409pt}\LT@entry 
    {4}{32.44414pt}\LT@entry 
    {4}{32.44414pt}\LT@entry 
    {4}{32.44414pt}\LT@entry 
    {4}{32.44414pt}\LT@entry 
    {4}{32.44414pt}\LT@entry 
    {4}{32.44414pt}\LT@entry 
    {4}{32.44414pt}\LT@entry 
    {4}{32.44414pt}\LT@entry 
    {1}{29.14426pt}}
\newlabel{tab:pearson_correlations}{{18}{74}{Additional Data}{table.18}{}}
\@writefile{lot}{\contentsline {table}{\numberline {18}{Pearson Correlations }}{74}{table.18}}
\citation{SteamSpy2017}
\@writefile{lot}{\contentsline {table}{\numberline {19}{\ignorespaces Top 10 Steam Games (Week 48/2017) - Source: \cite  {SteamSpy2017}}}{75}{table.19}}
\@writefile{brf}{\backcite{SteamSpy2017}{{75}{19}{table.19}}}
\newlabel{tab:steamspy}{{19}{75}{Top 10 Steam Games (Week 48/2017) - Source: \cite {SteamSpy2017}}{table.19}{}}
\@writefile{lof}{\contentsline {figure}{\numberline {10}{\ignorespaces Interaction effect - Coreness/Introvertive Motives}}{75}{figure.10}}
\newlabel{fig:interaction_intromot}{{10}{75}{Interaction effect - Coreness/Introvertive Motives}{figure.10}{}}
\newlabel{eidesstattliche-erklaerung}{{5.3}{76}{Declaration of Academic Integrity}{section*.8}{}}
\@writefile{toc}{\contentsline {section}{Declaration of Academic Integrity}{76}{section*.8}}
