This is BibTeX, Version 0.99d (TeX Live 2015/Debian)
Capacity: max_strings=35307, hash_size=35307, hash_prime=30011
The top-level auxiliary file: output.aux
The style file: apalike-url.bst
Database file #1: library.bib
You've used 195 entries,
            2301 wiz_defined-function locations,
            1786 strings with 39364 characters,
and the built_in function-call counts, 76639 in all, are:
= -- 9028
> -- 2324
< -- 159
+ -- 756
- -- 740
* -- 5749
:= -- 13416
add.period$ -- 619
call.type$ -- 195
change.case$ -- 1333
chr.to.int$ -- 187
cite$ -- 195
duplicate$ -- 2738
empty$ -- 5365
format.name$ -- 1007
if$ -- 16191
int.to.chr$ -- 9
int.to.str$ -- 0
missing$ -- 148
newline$ -- 1008
num.names$ -- 585
pop$ -- 1254
preamble$ -- 1
purify$ -- 1345
quote$ -- 0
skip$ -- 3271
stack$ -- 0
substring$ -- 4563
swap$ -- 202
text.length$ -- 12
text.prefix$ -- 0
top$ -- 0
type$ -- 1130
warning$ -- 0
while$ -- 587
width$ -- 0
write$ -- 2522
