Title,Ranking
INSIDE,92.81
Forza Horizon 3,92.30
Fallout 4,	89.79
DOOM,89.04
Forza Motorsport 6,88.63
Ori and the Blind Forest,88.52
Rise of the Tomb Raider,	87.04
Titanfall,86.71
Battlefield 1,86.61
Forza Horizon 2,86.32
Rare Replay,86.06
Gears of War 4,85.98
Halo: The Master Chief Collection,	85.23
Halo 5: Guardians,84.21